t	PROC
1	6
2	7
3	13
4	21
5	36
6	55
7	90
8	118
9	138
10	183
11	220
12	252
13	287
14	325
15	357
16	388
17	415
18	443
19	477
20	517
21	545
22	579
23	601
24	632
25	665
26	685
27	725
28	741
29	773
30	805
31	837
32	869
33	901
34	933
35	965
36	997
37	1025
38	1025
39	1024
40	1023
41	1022
42	1021
43	1020
44	1018
45	1017
46	1016
47	1015
48	1014
49	1013
50	1012
51	1011
52	1010
53	1009
54	1008
55	1006
56	1005
57	1004
58	1003
59	1002
60	1001
61	1000
62	999
63	998
64	997
65	996
66	995
67	994
68	992
69	991
70	990
71	989
72	988
73	987
74	986
75	985
76	983
77	983
78	982
79	981
80	980
81	979
82	977
83	976
84	975
85	974
86	973
87	972
88	971
89	970
90	969
91	968
92	967
93	966
94	965
95	963
96	962
97	961
98	960
99	959
100	958
101	957
102	956
103	955
104	954
105	953
106	952
107	951
108	950
109	947
110	947
111	946
112	945
113	944
114	943
115	942
116	941
117	940
118	939
119	938
120	937
121	936
122	934
123	933
124	932
125	931
126	930
127	929
128	928
129	927
130	926
131	925
132	924
133	923
134	922
135	920
136	919
137	918
138	917
139	916
140	915
141	914
142	913
143	912
144	911
145	910
146	909
147	908
148	907
149	905
150	904
151	903
152	902
153	901
154	900
155	899
156	898
157	897
158	896
159	895
160	894
161	893
162	891
163	890
164	889
165	888
166	887
167	886
168	885
169	884
170	883
171	882
172	880
173	879
174	878
175	877
176	876
177	875
178	874
179	873
180	872
