%!PS-Adobe-3.0 EPSF-3.0
%%Creator: graphviz version 2.38.0 (20140413.2041)
%%Title: G
%%Pages: 1
%%BoundingBox: 36 36 770 314
%%EndComments
save
%%BeginProlog
/DotDict 200 dict def
DotDict begin

/setupLatin1 {
mark
/EncodingVector 256 array def
 EncodingVector 0

ISOLatin1Encoding 0 255 getinterval putinterval
EncodingVector 45 /hyphen put

% Set up ISO Latin 1 character encoding
/starnetISO {
        dup dup findfont dup length dict begin
        { 1 index /FID ne { def }{ pop pop } ifelse
        } forall
        /Encoding EncodingVector def
        currentdict end definefont
} def
/Times-Roman starnetISO def
/Times-Italic starnetISO def
/Times-Bold starnetISO def
/Times-BoldItalic starnetISO def
/Helvetica starnetISO def
/Helvetica-Oblique starnetISO def
/Helvetica-Bold starnetISO def
/Helvetica-BoldOblique starnetISO def
/Courier starnetISO def
/Courier-Oblique starnetISO def
/Courier-Bold starnetISO def
/Courier-BoldOblique starnetISO def
cleartomark
} bind def

%%BeginResource: procset graphviz 0 0
/coord-font-family /Times-Roman def
/default-font-family /Times-Roman def
/coordfont coord-font-family findfont 8 scalefont def

/InvScaleFactor 1.0 def
/set_scale {
       dup 1 exch div /InvScaleFactor exch def
       scale
} bind def

% styles
/solid { [] 0 setdash } bind def
/dashed { [9 InvScaleFactor mul dup ] 0 setdash } bind def
/dotted { [1 InvScaleFactor mul 6 InvScaleFactor mul] 0 setdash } bind def
/invis {/fill {newpath} def /stroke {newpath} def /show {pop newpath} def} bind def
/bold { 2 setlinewidth } bind def
/filled { } bind def
/unfilled { } bind def
/rounded { } bind def
/diagonals { } bind def
/tapered { } bind def

% hooks for setting color 
/nodecolor { sethsbcolor } bind def
/edgecolor { sethsbcolor } bind def
/graphcolor { sethsbcolor } bind def
/nopcolor {pop pop pop} bind def

/beginpage {	% i j npages
	/npages exch def
	/j exch def
	/i exch def
	/str 10 string def
	npages 1 gt {
		gsave
			coordfont setfont
			0 0 moveto
			(\() show i str cvs show (,) show j str cvs show (\)) show
		grestore
	} if
} bind def

/set_font {
	findfont exch
	scalefont setfont
} def

% draw text fitted to its expected width
/alignedtext {			% width text
	/text exch def
	/width exch def
	gsave
		width 0 gt {
			[] 0 setdash
			text stringwidth pop width exch sub text length div 0 text ashow
		} if
	grestore
} def

/boxprim {				% xcorner ycorner xsize ysize
		4 2 roll
		moveto
		2 copy
		exch 0 rlineto
		0 exch rlineto
		pop neg 0 rlineto
		closepath
} bind def

/ellipse_path {
	/ry exch def
	/rx exch def
	/y exch def
	/x exch def
	matrix currentmatrix
	newpath
	x y translate
	rx ry scale
	0 0 1 0 360 arc
	setmatrix
} bind def

/endpage { showpage } bind def
/showpage { } def

/layercolorseq
	[	% layer color sequence - darkest to lightest
		[0 0 0]
		[.2 .8 .8]
		[.4 .8 .8]
		[.6 .8 .8]
		[.8 .8 .8]
	]
def

/layerlen layercolorseq length def

/setlayer {/maxlayer exch def /curlayer exch def
	layercolorseq curlayer 1 sub layerlen mod get
	aload pop sethsbcolor
	/nodecolor {nopcolor} def
	/edgecolor {nopcolor} def
	/graphcolor {nopcolor} def
} bind def

/onlayer { curlayer ne {invis} if } def

/onlayers {
	/myupper exch def
	/mylower exch def
	curlayer mylower lt
	curlayer myupper gt
	or
	{invis} if
} def

/curlayer 0 def

%%EndResource
%%EndProlog
%%BeginSetup
14 default-font-family set_font
1 setmiterlimit
% /arrowlength 10 def
% /arrowwidth 5 def

% make sure pdfmark is harmless for PS-interpreters other than Distiller
/pdfmark where {pop} {userdict /pdfmark /cleartomark load put} ifelse
% make '<<' and '>>' safe on PS Level 1 devices
/languagelevel where {pop languagelevel}{1} ifelse
2 lt {
    userdict (<<) cvn ([) cvn load put
    userdict (>>) cvn ([) cvn load put
} if

%%EndSetup
setupLatin1
%%Page: 1 1
%%PageBoundingBox: 36 36 770 314
%%PageOrientation: Portrait
0 0 1 beginpage
gsave
36 36 734 278 boxprim clip newpath
1 1 set_scale 0 rotate 40 40 translate
% libQt5Modeling
gsave
0.18421 0.159 0.93725 nodecolor
newpath 289.5 108 moveto
196.5 108 lineto
196.5 112 lineto
184.5 112 lineto
184.5 72 lineto
289.5 72 lineto
closepath fill
1 setlinewidth
filled
0 0 0 nodecolor
newpath 289.5 108 moveto
196.5 108 lineto
196.5 112 lineto
184.5 112 lineto
184.5 72 lineto
289.5 72 lineto
closepath stroke
1 setlinewidth
filled
0 0 0 nodecolor
newpath 184.5 108 moveto
196.5 108 lineto
stroke
0 0 0 nodecolor
14 /Times-Roman set_font
192.5 86.3 moveto 89 (libQt5Modeling) alignedtext
grestore
% libQt5Core
gsave
0.35185 0.050279 0.70196 nodecolor
newpath 386 36 moveto
306 36 lineto
306 0 lineto
386 0 lineto
closepath fill
1 setlinewidth
filled
0 0 0 nodecolor
newpath 386 36 moveto
306 36 lineto
306 0 lineto
386 0 lineto
closepath stroke
0 0 0 nodecolor
14 /Times-Roman set_font
314 14.3 moveto 64 (libQt5Core) alignedtext
grestore
% libQt5Modeling->libQt5Core
gsave
1 setlinewidth
0 0 0 edgecolor
newpath 289.53 81 moveto
310.01 81 328.67 81 328.67 81 curveto
328.67 81 328.67 41.22 328.67 41.22 curveto
stroke
0 0 0 edgecolor
newpath 330.42 41.22 moveto
328.67 36.22 lineto
326.92 41.22 lineto
closepath fill
1 setlinewidth
solid
0 0 0 edgecolor
newpath 330.42 41.22 moveto
328.67 36.22 lineto
326.92 41.22 lineto
closepath stroke
grestore
% libQt5ModelingWidgets
gsave
0.18421 0.159 0.93725 nodecolor
newpath 496.5 269.74 moveto
357.5 269.74 lineto
357.5 273.74 lineto
345.5 273.74 lineto
345.5 233.74 lineto
496.5 233.74 lineto
closepath fill
1 setlinewidth
filled
0 0 0 nodecolor
newpath 496.5 269.74 moveto
357.5 269.74 lineto
357.5 273.74 lineto
345.5 273.74 lineto
345.5 233.74 lineto
496.5 233.74 lineto
closepath stroke
1 setlinewidth
filled
0 0 0 nodecolor
newpath 345.5 269.74 moveto
357.5 269.74 lineto
stroke
0 0 0 nodecolor
14 /Times-Roman set_font
353.5 248.04 moveto 135 (libQt5ModelingWidgets) alignedtext
grestore
% libQt5ModelingWidgets->libQt5Modeling
gsave
1 setlinewidth
0 0 0 edgecolor
newpath 345.09 251 moveto
300.77 251 253.5 251 253.5 251 curveto
253.5 251 253.5 113.16 253.5 113.16 curveto
stroke
0 0 0 edgecolor
newpath 255.25 113.16 moveto
253.5 108.16 lineto
251.75 113.16 lineto
closepath fill
1 setlinewidth
solid
0 0 0 edgecolor
newpath 255.25 113.16 moveto
253.5 108.16 lineto
251.75 113.16 lineto
closepath stroke
grestore
% libQt5ModelingWidgets->libQt5Core
gsave
1 setlinewidth
0 0 0 edgecolor
newpath 377 233.4 moveto
377 233.4 377 41.26 377 41.26 curveto
stroke
0 0 0 edgecolor
newpath 378.75 41.26 moveto
377 36.26 lineto
375.25 41.26 lineto
closepath fill
1 setlinewidth
solid
0 0 0 edgecolor
newpath 378.75 41.26 moveto
377 36.26 lineto
375.25 41.26 lineto
closepath stroke
grestore
% libQt5Gui
gsave
0.35185 0.050279 0.70196 nodecolor
newpath 613 108 moveto
539 108 lineto
539 72 lineto
613 72 lineto
closepath fill
1 setlinewidth
filled
0 0 0 nodecolor
newpath 613 108 moveto
539 108 lineto
539 72 lineto
613 72 lineto
closepath stroke
0 0 0 nodecolor
14 /Times-Roman set_font
547 86.3 moveto 58 (libQt5Gui) alignedtext
grestore
% libQt5ModelingWidgets->libQt5Gui
gsave
1 setlinewidth
0 0 0 edgecolor
newpath 477.5 233.37 moveto
477.5 221.78 477.5 209 477.5 209 curveto
477.5 209 581.67 209 581.67 209 curveto
581.67 209 581.67 113.07 581.67 113.07 curveto
stroke
0 0 0 edgecolor
newpath 583.42 113.07 moveto
581.67 108.07 lineto
579.92 113.07 lineto
closepath fill
1 setlinewidth
solid
0 0 0 edgecolor
newpath 583.42 113.07 moveto
581.67 108.07 lineto
579.92 113.07 lineto
closepath stroke
grestore
% libQt5Widgets
gsave
0.35185 0.050279 0.70196 nodecolor
newpath 566 188.87 moveto
468 188.87 lineto
468 152.87 lineto
566 152.87 lineto
closepath fill
1 setlinewidth
filled
0 0 0 nodecolor
newpath 566 188.87 moveto
468 188.87 lineto
468 152.87 lineto
566 152.87 lineto
closepath stroke
0 0 0 nodecolor
14 /Times-Roman set_font
476 167.17 moveto 82 (libQt5Widgets) alignedtext
grestore
% libQt5ModelingWidgets->libQt5Widgets
gsave
1 setlinewidth
0 0 0 edgecolor
newpath 487 233.39 moveto
487 233.39 487 194.15 487 194.15 curveto
stroke
0 0 0 edgecolor
newpath 488.75 194.15 moveto
487 189.15 lineto
485.25 194.15 lineto
closepath fill
1 setlinewidth
solid
0 0 0 edgecolor
newpath 488.75 194.15 moveto
487 189.15 lineto
485.25 194.15 lineto
closepath stroke
grestore
% libQt5Uml
gsave
0.18421 0.159 0.93725 nodecolor
newpath 89.5 188.87 moveto
24.5 188.87 lineto
24.5 192.87 lineto
12.5 192.87 lineto
12.5 152.87 lineto
89.5 152.87 lineto
closepath fill
1 setlinewidth
filled
0 0 0 nodecolor
newpath 89.5 188.87 moveto
24.5 188.87 lineto
24.5 192.87 lineto
12.5 192.87 lineto
12.5 152.87 lineto
89.5 152.87 lineto
closepath stroke
1 setlinewidth
filled
0 0 0 nodecolor
newpath 12.5 188.87 moveto
24.5 188.87 lineto
stroke
0 0 0 nodecolor
14 /Times-Roman set_font
20.5 167.17 moveto 61 (libQt5Uml) alignedtext
grestore
% libQt5Uml->libQt5Modeling
gsave
1 setlinewidth
0 0 0 edgecolor
newpath 89.76 170 moveto
134.35 170 201.5 170 201.5 170 curveto
201.5 170 201.5 113.15 201.5 113.15 curveto
stroke
0 0 0 edgecolor
newpath 203.25 113.15 moveto
201.5 108.15 lineto
199.75 113.15 lineto
closepath fill
1 setlinewidth
solid
0 0 0 edgecolor
newpath 203.25 113.15 moveto
201.5 108.15 lineto
199.75 113.15 lineto
closepath stroke
grestore
% libQt5Uml->libQt5Core
gsave
1 setlinewidth
0 0 0 edgecolor
newpath 51 152.73 moveto
51 112.24 51 18 51 18 curveto
51 18 300.91 18 300.91 18 curveto
stroke
0 0 0 edgecolor
newpath 300.91 19.75 moveto
305.91 18 lineto
300.91 16.25 lineto
closepath fill
1 setlinewidth
solid
0 0 0 edgecolor
newpath 300.91 19.75 moveto
305.91 18 lineto
300.91 16.25 lineto
closepath stroke
grestore
% libQt5Mof
gsave
0.18421 0.159 0.93725 nodecolor
newpath 374 188.87 moveto
310 188.87 lineto
310 192.87 lineto
298 192.87 lineto
298 152.87 lineto
374 152.87 lineto
closepath fill
1 setlinewidth
filled
0 0 0 nodecolor
newpath 374 188.87 moveto
310 188.87 lineto
310 192.87 lineto
298 192.87 lineto
298 152.87 lineto
374 152.87 lineto
closepath stroke
1 setlinewidth
filled
0 0 0 nodecolor
newpath 298 188.87 moveto
310 188.87 lineto
stroke
0 0 0 nodecolor
14 /Times-Roman set_font
306 167.17 moveto 60 (libQt5Mof) alignedtext
grestore
% libQt5Mof->libQt5Modeling
gsave
1 setlinewidth
0 0 0 edgecolor
newpath 302 152.52 moveto
302 128.66 302 90 302 90 curveto
302 90 294.77 90 294.77 90 curveto
stroke
0 0 0 edgecolor
newpath 294.77 88.25 moveto
289.77 90 lineto
294.77 91.75 lineto
closepath fill
1 setlinewidth
solid
0 0 0 edgecolor
newpath 294.77 88.25 moveto
289.77 90 lineto
294.77 91.75 lineto
closepath stroke
grestore
% libQt5Mof->libQt5Core
gsave
1 setlinewidth
0 0 0 edgecolor
newpath 351.33 152.73 moveto
351.33 152.73 351.33 41.11 351.33 41.11 curveto
stroke
0 0 0 edgecolor
newpath 353.08 41.11 moveto
351.33 36.11 lineto
349.58 41.11 lineto
closepath fill
1 setlinewidth
solid
0 0 0 edgecolor
newpath 353.08 41.11 moveto
351.33 36.11 lineto
349.58 41.11 lineto
closepath stroke
grestore
% libQt5Duse
gsave
0.18421 0.159 0.93725 nodecolor
newpath 80 269.74 moveto
12 269.74 lineto
12 273.74 lineto
0 273.74 lineto
0 233.74 lineto
80 233.74 lineto
closepath fill
1 setlinewidth
filled
0 0 0 nodecolor
newpath 80 269.74 moveto
12 269.74 lineto
12 273.74 lineto
0 273.74 lineto
0 233.74 lineto
80 233.74 lineto
closepath stroke
1 setlinewidth
filled
0 0 0 nodecolor
newpath 0 269.74 moveto
12 269.74 lineto
stroke
0 0 0 nodecolor
14 /Times-Roman set_font
8 248.04 moveto 64 (libQt5Duse) alignedtext
grestore
% libQt5Duse->libQt5Modeling
gsave
1 setlinewidth
0 0 0 edgecolor
newpath 8.33 233.5 moveto
8.33 191.2 8.33 90 8.33 90 curveto
8.33 90 179.25 90 179.25 90 curveto
stroke
0 0 0 edgecolor
newpath 179.25 91.75 moveto
184.25 90 lineto
179.25 88.25 lineto
closepath fill
1 setlinewidth
solid
0 0 0 edgecolor
newpath 179.25 91.75 moveto
184.25 90 lineto
179.25 88.25 lineto
closepath stroke
grestore
% libQt5Duse->libQt5Uml
gsave
1 setlinewidth
0 0 0 edgecolor
newpath 46.25 233.39 moveto
46.25 233.39 46.25 194.15 46.25 194.15 curveto
stroke
0 0 0 edgecolor
newpath 48 194.15 moveto
46.25 189.15 lineto
44.5 194.15 lineto
closepath fill
1 setlinewidth
solid
0 0 0 edgecolor
newpath 48 194.15 moveto
46.25 189.15 lineto
44.5 194.15 lineto
closepath stroke
grestore
% libQt5Duse->libQt5Core
gsave
1 setlinewidth
0 0 0 edgecolor
newpath 4.17 233.5 moveto
4.17 177.04 4.17 9 4.17 9 curveto
4.17 9 300.78 9 300.78 9 curveto
stroke
0 0 0 edgecolor
newpath 300.78 10.75 moveto
305.78 9 lineto
300.78 7.25 lineto
closepath fill
1 setlinewidth
solid
0 0 0 edgecolor
newpath 300.78 10.75 moveto
305.78 9 lineto
300.78 7.25 lineto
closepath stroke
grestore
% libQt5SADuseProfile
gsave
0.18421 0.159 0.93725 nodecolor
newpath 235.5 269.74 moveto
110.5 269.74 lineto
110.5 273.74 lineto
98.5 273.74 lineto
98.5 233.74 lineto
235.5 233.74 lineto
closepath fill
1 setlinewidth
filled
0 0 0 nodecolor
newpath 235.5 269.74 moveto
110.5 269.74 lineto
110.5 273.74 lineto
98.5 273.74 lineto
98.5 233.74 lineto
235.5 233.74 lineto
closepath stroke
1 setlinewidth
filled
0 0 0 nodecolor
newpath 98.5 269.74 moveto
110.5 269.74 lineto
stroke
0 0 0 nodecolor
14 /Times-Roman set_font
106.5 248.04 moveto 121 (libQt5SADuseProfile) alignedtext
grestore
% libQt5SADuseProfile->libQt5Modeling
gsave
1 setlinewidth
0 0 0 edgecolor
newpath 218.5 233.5 moveto
218.5 233.5 218.5 113.42 218.5 113.42 curveto
stroke
0 0 0 edgecolor
newpath 220.25 113.42 moveto
218.5 108.42 lineto
216.75 113.42 lineto
closepath fill
1 setlinewidth
solid
0 0 0 edgecolor
newpath 220.25 113.42 moveto
218.5 108.42 lineto
216.75 113.42 lineto
closepath stroke
grestore
% libQt5SADuseProfile->libQt5Uml
gsave
1 setlinewidth
0 0 0 edgecolor
newpath 98.33 251 moveto
90.22 251 84.75 251 84.75 251 curveto
84.75 251 84.75 194.05 84.75 194.05 curveto
stroke
0 0 0 edgecolor
newpath 86.5 194.05 moveto
84.75 189.05 lineto
83 194.05 lineto
closepath fill
1 setlinewidth
solid
0 0 0 edgecolor
newpath 86.5 194.05 moveto
84.75 189.05 lineto
83 194.05 lineto
closepath stroke
grestore
% libQt5SADuseProfile->libQt5Core
gsave
1 setlinewidth
0 0 0 edgecolor
newpath 141.5 233.73 moveto
141.5 180.4 141.5 27 141.5 27 curveto
141.5 27 300.6 27 300.6 27 curveto
stroke
0 0 0 edgecolor
newpath 300.6 28.75 moveto
305.6 27 lineto
300.6 25.25 lineto
closepath fill
1 setlinewidth
solid
0 0 0 edgecolor
newpath 300.6 28.75 moveto
305.6 27 lineto
300.6 25.25 lineto
closepath stroke
grestore
% libQt5Optimization
gsave
0.18421 0.159 0.93725 nodecolor
newpath 521 108 moveto
405 108 lineto
405 112 lineto
393 112 lineto
393 72 lineto
521 72 lineto
closepath fill
1 setlinewidth
filled
0 0 0 nodecolor
newpath 521 108 moveto
405 108 lineto
405 112 lineto
393 112 lineto
393 72 lineto
521 72 lineto
closepath stroke
1 setlinewidth
filled
0 0 0 nodecolor
newpath 393 108 moveto
405 108 lineto
stroke
0 0 0 nodecolor
14 /Times-Roman set_font
401 86.3 moveto 112 (libQt5Optimization) alignedtext
grestore
% libQt5Optimization->libQt5Core
gsave
1 setlinewidth
0 0 0 edgecolor
newpath 392.98 99 moveto
386.93 99 383 99 383 99 curveto
383 99 383 41.38 383 41.38 curveto
stroke
0 0 0 edgecolor
newpath 384.75 41.38 moveto
383 36.38 lineto
381.25 41.38 lineto
closepath fill
1 setlinewidth
solid
0 0 0 edgecolor
newpath 384.75 41.38 moveto
383 36.38 lineto
381.25 41.38 lineto
closepath stroke
grestore
% libQt5Gui->libQt5Core
gsave
1 setlinewidth
0 0 0 edgecolor
newpath 576 71.97 moveto
576 52.42 576 24 576 24 curveto
576 24 391.06 24 391.06 24 curveto
stroke
0 0 0 edgecolor
newpath 391.06 22.25 moveto
386.06 24 lineto
391.06 25.75 lineto
closepath fill
1 setlinewidth
solid
0 0 0 edgecolor
newpath 391.06 22.25 moveto
386.06 24 lineto
391.06 25.75 lineto
closepath stroke
grestore
% libQt5Widgets->libQt5Core
gsave
1 setlinewidth
0 0 0 edgecolor
newpath 467.93 170 moveto
428.62 170 380 170 380 170 curveto
380 170 380 41.03 380 41.03 curveto
stroke
0 0 0 edgecolor
newpath 381.75 41.03 moveto
380 36.03 lineto
378.25 41.03 lineto
closepath fill
1 setlinewidth
solid
0 0 0 edgecolor
newpath 381.75 41.03 moveto
380 36.03 lineto
378.25 41.03 lineto
closepath stroke
grestore
% libQt5Widgets->libQt5Gui
gsave
1 setlinewidth
0 0 0 edgecolor
newpath 552.5 152.52 moveto
552.5 152.52 552.5 113.28 552.5 113.28 curveto
stroke
0 0 0 edgecolor
newpath 554.25 113.28 moveto
552.5 108.28 lineto
550.75 113.28 lineto
closepath fill
1 setlinewidth
solid
0 0 0 edgecolor
newpath 554.25 113.28 moveto
552.5 108.28 lineto
550.75 113.28 lineto
closepath stroke
grestore
% DuSE-MT
gsave
1 setlinewidth
0 0 0 nodecolor
594 251.74 48.19 18 ellipse_path stroke
0 0 0 nodecolor
14 /Times-Roman set_font
565 248.04 moveto 58 (DuSE-MT) alignedtext
grestore
% DuSE-MT->libQt5Modeling
gsave
1 setlinewidth
0 0 0 edgecolor
newpath 552.6 242.35 moveto
552.6 233.31 552.6 221 552.6 221 curveto
552.6 221 271.5 221 271.5 221 curveto
271.5 221 271.5 113.21 271.5 113.21 curveto
stroke
0 0 0 edgecolor
newpath 273.25 113.21 moveto
271.5 108.21 lineto
269.75 113.22 lineto
closepath fill
1 setlinewidth
solid
0 0 0 edgecolor
newpath 273.25 113.21 moveto
271.5 108.21 lineto
269.75 113.22 lineto
closepath stroke
grestore
% DuSE-MT->libQt5Core
gsave
1 setlinewidth
0 0 0 edgecolor
newpath 617.34 235.64 moveto
617.34 181.89 617.34 12 617.34 12 curveto
617.34 12 391.04 12 391.04 12 curveto
stroke
0 0 0 edgecolor
newpath 391.04 10.25 moveto
386.04 12 lineto
391.04 13.75 lineto
closepath fill
1 setlinewidth
solid
0 0 0 edgecolor
newpath 391.04 10.25 moveto
386.04 12 lineto
391.04 13.75 lineto
closepath stroke
grestore
% DuSE-MT->libQt5Gui
gsave
1 setlinewidth
0 0 0 edgecolor
newpath 597.33 233.5 moveto
597.33 233.5 597.33 113.42 597.33 113.42 curveto
stroke
0 0 0 edgecolor
newpath 599.08 113.42 moveto
597.33 108.42 lineto
595.58 113.42 lineto
closepath fill
1 setlinewidth
solid
0 0 0 edgecolor
newpath 599.08 113.42 moveto
597.33 108.42 lineto
595.58 113.42 lineto
closepath stroke
grestore
% DuSE-MT->libQt5Widgets
gsave
1 setlinewidth
0 0 0 edgecolor
newpath 559.3 239.1 moveto
559.3 239.1 559.3 194.12 559.3 194.12 curveto
stroke
0 0 0 edgecolor
newpath 561.05 194.12 moveto
559.3 189.12 lineto
557.55 194.12 lineto
closepath fill
1 setlinewidth
solid
0 0 0 edgecolor
newpath 561.05 194.12 moveto
559.3 189.12 lineto
557.55 194.12 lineto
closepath stroke
grestore
% Plugins do\nDuSE-MT
gsave
1 setlinewidth
0 0 0 nodecolor
674 170.87 52.15 26.74 ellipse_path stroke
0 0 0 nodecolor
14 /Times-Roman set_font
645 174.67 moveto 58 (Plugins do) alignedtext
0 0 0 nodecolor
14 /Times-Roman set_font
645 159.67 moveto 58 (DuSE-MT) alignedtext
grestore
% DuSE-MT->Plugins do\nDuSE-MT
gsave
1 setlinewidth
dashed
0 0 0 edgecolor
newpath 631.88 240.5 moveto
631.88 240.5 631.88 192.04 631.88 192.04 curveto
stroke
0 0 0 edgecolor
newpath 633.64 192.04 moveto
631.88 187.04 lineto
630.14 192.04 lineto
closepath fill
1 setlinewidth
solid
0 0 0 edgecolor
newpath 633.64 192.04 moveto
631.88 187.04 lineto
630.14 192.04 lineto
closepath stroke
grestore
endpage
showpage
grestore
%%PageTrailer
%%EndPage: 1
%%Trailer
end
restore
%%EOF
