%!PS-Adobe-3.0 EPSF-3.0
%%Creator: graphviz version 2.38.0 (20140413.2041)
%%Title: G
%%Pages: 1
%%BoundingBox: 36 36 1049 506
%%EndComments
save
%%BeginProlog
/DotDict 200 dict def
DotDict begin

/setupLatin1 {
mark
/EncodingVector 256 array def
 EncodingVector 0

ISOLatin1Encoding 0 255 getinterval putinterval
EncodingVector 45 /hyphen put

% Set up ISO Latin 1 character encoding
/starnetISO {
        dup dup findfont dup length dict begin
        { 1 index /FID ne { def }{ pop pop } ifelse
        } forall
        /Encoding EncodingVector def
        currentdict end definefont
} def
/Times-Roman starnetISO def
/Times-Italic starnetISO def
/Times-Bold starnetISO def
/Times-BoldItalic starnetISO def
/Helvetica starnetISO def
/Helvetica-Oblique starnetISO def
/Helvetica-Bold starnetISO def
/Helvetica-BoldOblique starnetISO def
/Courier starnetISO def
/Courier-Oblique starnetISO def
/Courier-Bold starnetISO def
/Courier-BoldOblique starnetISO def
cleartomark
} bind def

%%BeginResource: procset graphviz 0 0
/coord-font-family /Times-Roman def
/default-font-family /Times-Roman def
/coordfont coord-font-family findfont 8 scalefont def

/InvScaleFactor 1.0 def
/set_scale {
       dup 1 exch div /InvScaleFactor exch def
       scale
} bind def

% styles
/solid { [] 0 setdash } bind def
/dashed { [9 InvScaleFactor mul dup ] 0 setdash } bind def
/dotted { [1 InvScaleFactor mul 6 InvScaleFactor mul] 0 setdash } bind def
/invis {/fill {newpath} def /stroke {newpath} def /show {pop newpath} def} bind def
/bold { 2 setlinewidth } bind def
/filled { } bind def
/unfilled { } bind def
/rounded { } bind def
/diagonals { } bind def
/tapered { } bind def

% hooks for setting color 
/nodecolor { sethsbcolor } bind def
/edgecolor { sethsbcolor } bind def
/graphcolor { sethsbcolor } bind def
/nopcolor {pop pop pop} bind def

/beginpage {	% i j npages
	/npages exch def
	/j exch def
	/i exch def
	/str 10 string def
	npages 1 gt {
		gsave
			coordfont setfont
			0 0 moveto
			(\() show i str cvs show (,) show j str cvs show (\)) show
		grestore
	} if
} bind def

/set_font {
	findfont exch
	scalefont setfont
} def

% draw text fitted to its expected width
/alignedtext {			% width text
	/text exch def
	/width exch def
	gsave
		width 0 gt {
			[] 0 setdash
			text stringwidth pop width exch sub text length div 0 text ashow
		} if
	grestore
} def

/boxprim {				% xcorner ycorner xsize ysize
		4 2 roll
		moveto
		2 copy
		exch 0 rlineto
		0 exch rlineto
		pop neg 0 rlineto
		closepath
} bind def

/ellipse_path {
	/ry exch def
	/rx exch def
	/y exch def
	/x exch def
	matrix currentmatrix
	newpath
	x y translate
	rx ry scale
	0 0 1 0 360 arc
	setmatrix
} bind def

/endpage { showpage } bind def
/showpage { } def

/layercolorseq
	[	% layer color sequence - darkest to lightest
		[0 0 0]
		[.2 .8 .8]
		[.4 .8 .8]
		[.6 .8 .8]
		[.8 .8 .8]
	]
def

/layerlen layercolorseq length def

/setlayer {/maxlayer exch def /curlayer exch def
	layercolorseq curlayer 1 sub layerlen mod get
	aload pop sethsbcolor
	/nodecolor {nopcolor} def
	/edgecolor {nopcolor} def
	/graphcolor {nopcolor} def
} bind def

/onlayer { curlayer ne {invis} if } def

/onlayers {
	/myupper exch def
	/mylower exch def
	curlayer mylower lt
	curlayer myupper gt
	or
	{invis} if
} def

/curlayer 0 def

%%EndResource
%%EndProlog
%%BeginSetup
14 default-font-family set_font
1 setmiterlimit
% /arrowlength 10 def
% /arrowwidth 5 def

% make sure pdfmark is harmless for PS-interpreters other than Distiller
/pdfmark where {pop} {userdict /pdfmark /cleartomark load put} ifelse
% make '<<' and '>>' safe on PS Level 1 devices
/languagelevel where {pop languagelevel}{1} ifelse
2 lt {
    userdict (<<) cvn ([) cvn load put
    userdict (>>) cvn ([) cvn load put
} if

%%EndSetup
setupLatin1
%%Page: 1 1
%%PageBoundingBox: 36 36 1049 506
%%PageOrientation: Portrait
0 0 1 beginpage
gsave
36 36 1013 470 boxprim clip newpath
1 1 set_scale 0 rotate 40 40 translate
% cluster_qtmodeling
gsave
0.17593 0.072581 0.97255 graphcolor
newpath 565 8 moveto
565 8 703 8 703 8 curveto
709 8 715 14 715 20 curveto
715 20 715 97 715 97 curveto
715 103 709 109 703 109 curveto
703 109 565 109 565 109 curveto
559 109 553 103 553 97 curveto
553 97 553 20 553 20 curveto
553 14 559 8 565 8 curveto
closepath fill
1 setlinewidth
filled
0 0 0 graphcolor
newpath 565 8 moveto
565 8 703 8 703 8 curveto
709 8 715 14 715 20 curveto
715 20 715 97 715 97 curveto
715 103 709 109 703 109 curveto
703 109 565 109 565 109 curveto
559 109 553 103 553 97 curveto
553 97 553 20 553 20 curveto
553 14 559 8 565 8 curveto
stroke
0 0 0 graphcolor
12 /typewriter-bold set_font
597.5 15.4 moveto 73 (Qt5Modeling) alignedtext
grestore
% cluster_qtcore
gsave
0.35 0.041841 0.93725 graphcolor
newpath 20 8 moveto
20 8 382 8 382 8 curveto
388 8 394 14 394 20 curveto
394 20 394 97 394 97 curveto
394 103 388 109 382 109 curveto
382 109 20 109 20 109 curveto
14 109 8 103 8 97 curveto
8 97 8 20 8 20 curveto
8 14 14 8 20 8 curveto
closepath fill
1 setlinewidth
filled
0 0 0 graphcolor
newpath 20 8 moveto
20 8 382 8 382 8 curveto
388 8 394 14 394 20 curveto
394 20 394 97 394 97 curveto
394 103 388 109 382 109 curveto
382 109 20 109 20 109 curveto
14 109 8 103 8 97 curveto
8 97 8 20 8 20 curveto
8 14 14 8 20 8 curveto
stroke
0 0 0 graphcolor
12 /typewriter-bold set_font
176 15.4 moveto 50 (Qt5Core) alignedtext
grestore
% cluster_qtwidgets
gsave
0.35 0.041841 0.93725 graphcolor
newpath 761 224 moveto
761 224 985 224 985 224 curveto
991 224 997 230 997 236 curveto
997 236 997 313 997 313 curveto
997 319 991 325 985 325 curveto
985 325 761 325 761 325 curveto
755 325 749 319 749 313 curveto
749 313 749 236 749 236 curveto
749 230 755 224 761 224 curveto
closepath fill
1 setlinewidth
filled
0 0 0 graphcolor
newpath 761 224 moveto
761 224 985 224 985 224 curveto
991 224 997 230 997 236 curveto
997 236 997 313 997 313 curveto
997 319 991 325 985 325 curveto
985 325 761 325 761 325 curveto
755 325 749 319 749 313 curveto
749 313 749 236 749 236 curveto
749 230 755 224 761 224 curveto
stroke
0 0 0 graphcolor
12 /typewriter-bold set_font
838 231.4 moveto 70 (Qt5Widgets) alignedtext
grestore
% cluster_qtmodelingwidgets
gsave
0.17593 0.072581 0.97255 graphcolor
newpath 159 137 moveto
159 137 617 137 617 137 curveto
623 137 629 143 629 149 curveto
629 149 629 442 629 442 curveto
629 448 623 454 617 454 curveto
617 454 159 454 159 454 curveto
153 454 147 448 147 442 curveto
147 442 147 149 147 149 curveto
147 143 153 137 159 137 curveto
closepath fill
1 setlinewidth
filled
0 0 0 graphcolor
newpath 159 137 moveto
159 137 617 137 617 137 curveto
623 137 629 143 629 149 curveto
629 149 629 442 629 442 curveto
629 448 623 454 617 454 curveto
617 454 159 454 159 454 curveto
153 454 147 448 147 442 curveto
147 442 147 149 147 149 curveto
147 143 153 137 159 137 curveto
stroke
0 0 0 graphcolor
12 /typewriter-bold set_font
327.5 440.4 moveto 121 (Qt5ModelingWidgets) alignedtext
grestore
% QModelingObject
gsave
0.18421 0.159 0.93725 nodecolor
newpath 692.5 87 moveto
575.5 87 lineto
575.5 51 lineto
692.5 51 lineto
closepath fill
1 setlinewidth
filled
0 0 0 nodecolor
newpath 692.5 87 moveto
575.5 87 lineto
575.5 51 lineto
692.5 51 lineto
closepath stroke
0 0 0 nodecolor
14 /Times-Roman set_font
583.5 65.3 moveto 101 (QModelingObject) alignedtext
grestore
% QAbstractItemModel
gsave
0.35185 0.050279 0.70196 nodecolor
newpath 372 87 moveto
234 87 lineto
234 51 lineto
372 51 lineto
closepath fill
1 setlinewidth
filled
0 0 0 nodecolor
newpath 372 87 moveto
234 87 lineto
234 51 lineto
372 51 lineto
closepath stroke
0 0 0 nodecolor
14 /Times-Roman set_font
242 65.3 moveto 122 (QAbstractItemModel) alignedtext
grestore
% QSortFilterProxyModel
gsave
0.35185 0.050279 0.70196 nodecolor
newpath 180 87 moveto
30 87 lineto
30 51 lineto
180 51 lineto
closepath fill
1 setlinewidth
filled
0 0 0 nodecolor
newpath 180 87 moveto
30 87 lineto
30 51 lineto
180 51 lineto
closepath stroke
0 0 0 nodecolor
14 /Times-Roman set_font
38 65.3 moveto 134 (QSortFilterProxyModel) alignedtext
grestore
% QWidget
gsave
0.35185 0.050279 0.70196 nodecolor
newpath 975 303 moveto
907 303 lineto
907 267 lineto
975 267 lineto
closepath fill
1 setlinewidth
filled
0 0 0 nodecolor
newpath 975 303 moveto
907 303 lineto
907 267 lineto
975 267 lineto
closepath stroke
0 0 0 nodecolor
14 /Times-Roman set_font
915 281.3 moveto 52 (QWidget) alignedtext
grestore
% QTreeView
gsave
0.35185 0.050279 0.70196 nodecolor
newpath 853 303 moveto
771 303 lineto
771 267 lineto
853 267 lineto
closepath fill
1 setlinewidth
filled
0 0 0 nodecolor
newpath 853 303 moveto
771 303 lineto
771 267 lineto
853 267 lineto
closepath stroke
0 0 0 nodecolor
14 /Times-Roman set_font
779 281.3 moveto 66 (QTreeView) alignedtext
grestore
% QModelingObjectPropertyModel
gsave
0.18421 0.159 0.93725 nodecolor
newpath 497 195 moveto
297 195 lineto
297 159 lineto
497 159 lineto
closepath fill
1 setlinewidth
filled
0 0 0 nodecolor
newpath 497 195 moveto
297 195 lineto
297 159 lineto
497 159 lineto
closepath stroke
0 0 0 nodecolor
14 /Times-Roman set_font
305 173.3 moveto 184 (QModelingObjectPropertyModel) alignedtext
grestore
% QModelingObjectPropertyModel->QModelingObject
gsave
1 setlinewidth
dashed
0 0 0 edgecolor
newpath 497.03 177 moveto
542.37 177 586 177 586 177 curveto
586 177 586 97.32 586 97.32 curveto
stroke
0 0 0 edgecolor
newpath 586 87.32 moveto
590.5 97.32 lineto
586 92.32 lineto
586 97.32 lineto
586 97.32 lineto
586 97.32 lineto
586 92.32 lineto
581.5 97.32 lineto
586 87.32 lineto
closepath fill
1 setlinewidth
solid
0 0 0 edgecolor
newpath 586 87.32 moveto
590.5 97.32 lineto
586 92.32 lineto
586 97.32 lineto
586 97.32 lineto
586 97.32 lineto
586 92.32 lineto
581.5 97.32 lineto
586 87.32 lineto
closepath stroke
grestore
% QModelingObjectPropertyModel->QAbstractItemModel
gsave
1 setlinewidth
dashed
0 0 0 edgecolor
newpath 334.5 158.68 moveto
334.5 158.68 334.5 102.05 334.5 102.05 curveto
stroke
1 setlinewidth
solid
0 0 0 edgecolor
newpath 339.75 102.05 moveto
334.5 87.05 lineto
329.25 102.05 lineto
closepath stroke
grestore
% QModelingObjectPropertyFilterModel
gsave
0.18421 0.159 0.93725 nodecolor
newpath 401 303 moveto
169 303 lineto
169 267 lineto
401 267 lineto
closepath fill
1 setlinewidth
filled
0 0 0 nodecolor
newpath 401 303 moveto
169 303 lineto
169 267 lineto
401 267 lineto
closepath stroke
0 0 0 nodecolor
14 /Times-Roman set_font
177 281.3 moveto 216 (QModelingObjectPropertyFilterModel) alignedtext
grestore
% QModelingObjectPropertyFilterModel->QSortFilterProxyModel
gsave
1 setlinewidth
0 0 0 edgecolor
newpath 174.5 266.96 moveto
174.5 266.96 174.5 102.15 174.5 102.15 curveto
stroke
1 setlinewidth
solid
0 0 0 edgecolor
newpath 179.75 102.15 moveto
174.5 87.15 lineto
169.25 102.15 lineto
closepath stroke
grestore
% QModelingObjectPropertyFilterModel->QModelingObjectPropertyModel
gsave
1 setlinewidth
dashed
0 0 0 edgecolor
newpath 349 266.68 moveto
349 266.68 349 205.05 349 205.05 curveto
stroke
0 0 0 edgecolor
newpath 349 195.05 moveto
353.5 205.05 lineto
349 200.05 lineto
349 205.05 lineto
349 205.05 lineto
349 205.05 lineto
349 200.05 lineto
344.5 205.05 lineto
349 195.05 lineto
closepath fill
1 setlinewidth
solid
0 0 0 edgecolor
newpath 349 195.05 moveto
353.5 205.05 lineto
349 200.05 lineto
349 205.05 lineto
349 205.05 lineto
349 205.05 lineto
349 200.05 lineto
344.5 205.05 lineto
349 195.05 lineto
closepath stroke
grestore
% QModelingObjectView
gsave
0.18421 0.159 0.93725 nodecolor
newpath 353 411 moveto
207 411 lineto
207 375 lineto
353 375 lineto
closepath fill
1 setlinewidth
filled
0 0 0 nodecolor
newpath 353 411 moveto
207 411 lineto
207 375 lineto
353 375 lineto
closepath stroke
0 0 0 nodecolor
14 /Times-Roman set_font
215 389.3 moveto 130 (QModelingObjectView) alignedtext
grestore
% QModelingObjectView->QModelingObject
gsave
1 setlinewidth
dashed
0 0 0 edgecolor
newpath 265.4 374.73 moveto
265.4 356.44 265.4 331 265.4 331 curveto
265.4 331 635.5 331 635.5 331 curveto
635.5 331 635.5 97.01 635.5 97.01 curveto
stroke
0 0 0 edgecolor
newpath 635.5 87.01 moveto
640 97.01 lineto
635.5 92.01 lineto
635.5 97.01 lineto
635.5 97.01 lineto
635.5 97.01 lineto
635.5 92.01 lineto
631 97.01 lineto
635.5 87.01 lineto
closepath fill
1 setlinewidth
solid
0 0 0 edgecolor
newpath 635.5 87.01 moveto
640 97.01 lineto
635.5 92.01 lineto
635.5 97.01 lineto
635.5 97.01 lineto
635.5 97.01 lineto
635.5 92.01 lineto
631 97.01 lineto
635.5 87.01 lineto
closepath stroke
grestore
% QModelingObjectView->QWidget
gsave
1 setlinewidth
0 0 0 edgecolor
newpath 323.8 374.96 moveto
323.8 367.25 323.8 360 323.8 360 curveto
323.8 360 929.67 360 929.67 360 curveto
929.67 360 929.67 318.16 929.67 318.16 curveto
stroke
1 setlinewidth
solid
0 0 0 edgecolor
newpath 934.92 318.16 moveto
929.67 303.16 lineto
924.42 318.16 lineto
closepath stroke
grestore
% QModelingObjectView->QTreeView
gsave
1 setlinewidth
dashed
0 0 0 edgecolor
newpath 294.6 374.96 moveto
294.6 361.71 294.6 346 294.6 346 curveto
294.6 346 798.33 346 798.33 346 curveto
798.33 346 798.33 313.3 798.33 313.3 curveto
stroke
0 0 0 edgecolor
newpath 798.33 303.3 moveto
802.83 313.3 lineto
798.33 308.3 lineto
798.33 313.3 lineto
798.33 313.3 lineto
798.33 313.3 lineto
798.33 308.3 lineto
793.83 313.3 lineto
798.33 303.3 lineto
closepath fill
1 setlinewidth
solid
0 0 0 edgecolor
newpath 798.33 303.3 moveto
802.83 313.3 lineto
798.33 308.3 lineto
798.33 313.3 lineto
798.33 313.3 lineto
798.33 313.3 lineto
798.33 308.3 lineto
793.83 313.3 lineto
798.33 303.3 lineto
closepath stroke
grestore
% QModelingObjectModel
gsave
0.18421 0.159 0.93725 nodecolor
newpath 607 303 moveto
455 303 lineto
455 267 lineto
607 267 lineto
closepath fill
1 setlinewidth
filled
0 0 0 nodecolor
newpath 607 303 moveto
455 303 lineto
455 267 lineto
607 267 lineto
closepath stroke
0 0 0 nodecolor
14 /Times-Roman set_font
463 281.3 moveto 136 (QModelingObjectModel) alignedtext
grestore
% QModelingObjectView->QModelingObjectModel
gsave
1 setlinewidth
dashed
0 0 0 edgecolor
newpath 236.2 374.99 moveto
236.2 352.51 236.2 317 236.2 317 curveto
236.2 317 531 317 531 317 curveto
531 317 531 313.24 531 313.24 curveto
stroke
0 0 0 edgecolor
newpath 531 303.24 moveto
535.5 313.24 lineto
531 308.24 lineto
531 313.24 lineto
531 313.24 lineto
531 313.24 lineto
531 308.24 lineto
526.5 313.24 lineto
531 303.24 lineto
closepath fill
1 setlinewidth
solid
0 0 0 edgecolor
newpath 531 303.24 moveto
535.5 313.24 lineto
531 308.24 lineto
531 313.24 lineto
531 313.24 lineto
531 313.24 lineto
531 308.24 lineto
526.5 313.24 lineto
531 303.24 lineto
closepath stroke
grestore
% QModelingObjectPropertyEditor
gsave
0.18421 0.159 0.93725 nodecolor
newpath 607 411 moveto
407 411 lineto
407 375 lineto
607 375 lineto
closepath fill
1 setlinewidth
filled
0 0 0 nodecolor
newpath 607 411 moveto
407 411 lineto
407 375 lineto
607 375 lineto
closepath stroke
0 0 0 nodecolor
14 /Times-Roman set_font
415 389.3 moveto 184 (QModelingObjectPropertyEditor) alignedtext
grestore
% QModelingObjectPropertyEditor->QModelingObject
gsave
1 setlinewidth
dashed
0 0 0 edgecolor
newpath 607.32 393 moveto
638.09 393 664 393 664 393 curveto
664 393 664 97.35 664 97.35 curveto
stroke
0 0 0 edgecolor
newpath 664 87.35 moveto
668.5 97.35 lineto
664 92.35 lineto
664 97.35 lineto
664 97.35 lineto
664 97.35 lineto
664 92.35 lineto
659.5 97.35 lineto
664 87.35 lineto
closepath fill
1 setlinewidth
solid
0 0 0 edgecolor
newpath 664 87.35 moveto
668.5 97.35 lineto
664 92.35 lineto
664 97.35 lineto
664 97.35 lineto
664 97.35 lineto
664 92.35 lineto
659.5 97.35 lineto
664 87.35 lineto
closepath stroke
grestore
% QModelingObjectPropertyEditor->QWidget
gsave
1 setlinewidth
0 0 0 edgecolor
newpath 607.22 402 moveto
738.54 402 952.33 402 952.33 402 curveto
952.33 402 952.33 318.02 952.33 318.02 curveto
stroke
1 setlinewidth
solid
0 0 0 edgecolor
newpath 957.58 318.02 moveto
952.33 303.02 lineto
947.08 318.02 lineto
closepath stroke
grestore
% QModelingObjectPropertyEditor->QTreeView
gsave
1 setlinewidth
dashed
0 0 0 edgecolor
newpath 607.39 384 moveto
700.8 384 825.67 384 825.67 384 curveto
825.67 384 825.67 313.16 825.67 313.16 curveto
stroke
0 0 0 edgecolor
newpath 825.67 303.16 moveto
830.17 313.16 lineto
825.67 308.16 lineto
825.67 313.16 lineto
825.67 313.16 lineto
825.67 313.16 lineto
825.67 308.16 lineto
821.17 313.16 lineto
825.67 303.16 lineto
closepath fill
1 setlinewidth
solid
0 0 0 edgecolor
newpath 825.67 303.16 moveto
830.17 313.16 lineto
825.67 308.16 lineto
825.67 313.16 lineto
825.67 313.16 lineto
825.67 313.16 lineto
825.67 308.16 lineto
821.17 313.16 lineto
825.67 303.16 lineto
closepath stroke
grestore
% QModelingObjectPropertyEditor->QModelingObjectPropertyFilterModel
gsave
1 setlinewidth
dashed
0 0 0 edgecolor
newpath 431 374.68 moveto
431 343.87 431 285 431 285 curveto
431 285 411.1 285 411.1 285 curveto
stroke
0 0 0 edgecolor
newpath 401.1 285 moveto
411.1 280.5 lineto
406.1 285 lineto
411.1 285 lineto
411.1 285 lineto
411.1 285 lineto
406.1 285 lineto
411.1 289.5 lineto
401.1 285 lineto
closepath fill
1 setlinewidth
solid
0 0 0 edgecolor
newpath 401.1 285 moveto
411.1 280.5 lineto
406.1 285 lineto
411.1 285 lineto
411.1 285 lineto
411.1 285 lineto
406.1 285 lineto
411.1 289.5 lineto
401.1 285 lineto
closepath stroke
grestore
% QModelingObjectModel->QModelingObject
gsave
1 setlinewidth
dashed
0 0 0 edgecolor
newpath 596.5 266.96 moveto
596.5 266.96 596.5 97.15 596.5 97.15 curveto
stroke
0 0 0 edgecolor
newpath 596.5 87.15 moveto
601 97.15 lineto
596.5 92.15 lineto
596.5 97.15 lineto
596.5 97.15 lineto
596.5 97.15 lineto
596.5 92.15 lineto
592 97.15 lineto
596.5 87.15 lineto
closepath fill
1 setlinewidth
solid
0 0 0 edgecolor
newpath 596.5 87.15 moveto
601 97.15 lineto
596.5 92.15 lineto
596.5 97.15 lineto
596.5 97.15 lineto
596.5 97.15 lineto
596.5 92.15 lineto
592 97.15 lineto
596.5 87.15 lineto
closepath stroke
grestore
% QModelingObjectModel->QAbstractItemModel
gsave
1 setlinewidth
dashed
0 0 0 edgecolor
newpath 536.25 266.96 moveto
536.25 215.04 536.25 69 536.25 69 curveto
536.25 69 387.04 69 387.04 69 curveto
stroke
1 setlinewidth
solid
0 0 0 edgecolor
newpath 387.04 63.75 moveto
372.04 69 lineto
387.04 74.25 lineto
closepath stroke
grestore
endpage
showpage
grestore
%%PageTrailer
%%EndPage: 1
%%Trailer
end
restore
%%EOF
