%!PS-Adobe-3.0 EPSF-3.0
%%Creator: graphviz version 2.38.0 (20140413.2041)
%%Title: G
%%Pages: 1
%%BoundingBox: 36 36 772 358
%%EndComments
save
%%BeginProlog
/DotDict 200 dict def
DotDict begin

/setupLatin1 {
mark
/EncodingVector 256 array def
 EncodingVector 0

ISOLatin1Encoding 0 255 getinterval putinterval
EncodingVector 45 /hyphen put

% Set up ISO Latin 1 character encoding
/starnetISO {
        dup dup findfont dup length dict begin
        { 1 index /FID ne { def }{ pop pop } ifelse
        } forall
        /Encoding EncodingVector def
        currentdict end definefont
} def
/Times-Roman starnetISO def
/Times-Italic starnetISO def
/Times-Bold starnetISO def
/Times-BoldItalic starnetISO def
/Helvetica starnetISO def
/Helvetica-Oblique starnetISO def
/Helvetica-Bold starnetISO def
/Helvetica-BoldOblique starnetISO def
/Courier starnetISO def
/Courier-Oblique starnetISO def
/Courier-Bold starnetISO def
/Courier-BoldOblique starnetISO def
cleartomark
} bind def

%%BeginResource: procset graphviz 0 0
/coord-font-family /Times-Roman def
/default-font-family /Times-Roman def
/coordfont coord-font-family findfont 8 scalefont def

/InvScaleFactor 1.0 def
/set_scale {
       dup 1 exch div /InvScaleFactor exch def
       scale
} bind def

% styles
/solid { [] 0 setdash } bind def
/dashed { [9 InvScaleFactor mul dup ] 0 setdash } bind def
/dotted { [1 InvScaleFactor mul 6 InvScaleFactor mul] 0 setdash } bind def
/invis {/fill {newpath} def /stroke {newpath} def /show {pop newpath} def} bind def
/bold { 2 setlinewidth } bind def
/filled { } bind def
/unfilled { } bind def
/rounded { } bind def
/diagonals { } bind def
/tapered { } bind def

% hooks for setting color 
/nodecolor { sethsbcolor } bind def
/edgecolor { sethsbcolor } bind def
/graphcolor { sethsbcolor } bind def
/nopcolor {pop pop pop} bind def

/beginpage {	% i j npages
	/npages exch def
	/j exch def
	/i exch def
	/str 10 string def
	npages 1 gt {
		gsave
			coordfont setfont
			0 0 moveto
			(\() show i str cvs show (,) show j str cvs show (\)) show
		grestore
	} if
} bind def

/set_font {
	findfont exch
	scalefont setfont
} def

% draw text fitted to its expected width
/alignedtext {			% width text
	/text exch def
	/width exch def
	gsave
		width 0 gt {
			[] 0 setdash
			text stringwidth pop width exch sub text length div 0 text ashow
		} if
	grestore
} def

/boxprim {				% xcorner ycorner xsize ysize
		4 2 roll
		moveto
		2 copy
		exch 0 rlineto
		0 exch rlineto
		pop neg 0 rlineto
		closepath
} bind def

/ellipse_path {
	/ry exch def
	/rx exch def
	/y exch def
	/x exch def
	matrix currentmatrix
	newpath
	x y translate
	rx ry scale
	0 0 1 0 360 arc
	setmatrix
} bind def

/endpage { showpage } bind def
/showpage { } def

/layercolorseq
	[	% layer color sequence - darkest to lightest
		[0 0 0]
		[.2 .8 .8]
		[.4 .8 .8]
		[.6 .8 .8]
		[.8 .8 .8]
	]
def

/layerlen layercolorseq length def

/setlayer {/maxlayer exch def /curlayer exch def
	layercolorseq curlayer 1 sub layerlen mod get
	aload pop sethsbcolor
	/nodecolor {nopcolor} def
	/edgecolor {nopcolor} def
	/graphcolor {nopcolor} def
} bind def

/onlayer { curlayer ne {invis} if } def

/onlayers {
	/myupper exch def
	/mylower exch def
	curlayer mylower lt
	curlayer myupper gt
	or
	{invis} if
} def

/curlayer 0 def

%%EndResource
%%EndProlog
%%BeginSetup
14 default-font-family set_font
1 setmiterlimit
% /arrowlength 10 def
% /arrowwidth 5 def

% make sure pdfmark is harmless for PS-interpreters other than Distiller
/pdfmark where {pop} {userdict /pdfmark /cleartomark load put} ifelse
% make '<<' and '>>' safe on PS Level 1 devices
/languagelevel where {pop languagelevel}{1} ifelse
2 lt {
    userdict (<<) cvn ([) cvn load put
    userdict (>>) cvn ([) cvn load put
} if

%%EndSetup
setupLatin1
%%Page: 1 1
%%PageBoundingBox: 36 36 772 358
%%PageOrientation: Portrait
0 0 1 beginpage
gsave
36 36 736 322 boxprim clip newpath
1 1 set_scale 0 rotate 40 40 translate
% cluster_qtmodeling
gsave
0.17593 0.072581 0.97255 graphcolor
newpath 20 89 moveto
20 89 303 89 303 89 curveto
309 89 315 95 315 101 curveto
315 101 315 294 315 294 curveto
315 300 309 306 303 306 curveto
303 306 20 306 20 306 curveto
14 306 8 300 8 294 curveto
8 294 8 101 8 101 curveto
8 95 14 89 20 89 curveto
closepath fill
1 setlinewidth
filled
0 0 0 graphcolor
newpath 20 89 moveto
20 89 303 89 303 89 curveto
309 89 315 95 315 101 curveto
315 101 315 294 315 294 curveto
315 300 309 306 303 306 curveto
303 306 20 306 20 306 curveto
14 306 8 300 8 294 curveto
8 294 8 101 8 101 curveto
8 95 14 89 20 89 curveto
stroke
0 0 0 graphcolor
12 /typewriter-bold set_font
125 292.4 moveto 73 (Qt5Modeling) alignedtext
grestore
% cluster_qtcore
gsave
0.35 0.041841 0.93725 graphcolor
newpath 180 8 moveto
180 8 708 8 708 8 curveto
714 8 720 14 720 20 curveto
720 20 720 69 720 69 curveto
720 75 714 81 708 81 curveto
708 81 180 81 180 81 curveto
174 81 168 75 168 69 curveto
168 69 168 20 168 20 curveto
168 14 174 8 180 8 curveto
closepath fill
1 setlinewidth
filled
0 0 0 graphcolor
newpath 180 8 moveto
180 8 708 8 708 8 curveto
714 8 720 14 720 20 curveto
720 20 720 69 720 69 curveto
720 75 714 81 708 81 curveto
708 81 180 81 180 81 curveto
174 81 168 75 168 69 curveto
168 69 168 20 168 20 curveto
168 14 174 8 180 8 curveto
stroke
0 0 0 graphcolor
12 /typewriter-bold set_font
419 67.4 moveto 50 (Qt5Core) alignedtext
grestore
% QMetaModelPlugin
gsave
0.18421 0.159 0.93725 nodecolor
newpath 162 277 moveto
36 277 lineto
36 241 lineto
162 241 lineto
closepath fill
1 setlinewidth
filled
0 0 0 nodecolor
newpath 162 277 moveto
36 277 lineto
36 241 lineto
162 241 lineto
closepath stroke
0 0 0 nodecolor
14 /Times-Roman set_font
44 255.3 moveto 110 (QMetaModelPlugin) alignedtext
grestore
% QModelingElement
gsave
0.18421 0.159 0.93725 nodecolor
newpath 143.5 205 moveto
16.5 205 lineto
16.5 169 lineto
143.5 169 lineto
closepath fill
1 setlinewidth
filled
0 0 0 nodecolor
newpath 143.5 205 moveto
16.5 205 lineto
16.5 169 lineto
143.5 169 lineto
closepath stroke
0 0 0 nodecolor
14 /Times-Roman set_font
24.5 183.3 moveto 111 (QModelingElement) alignedtext
grestore
% QMetaModelPlugin->QModelingElement
gsave
1 setlinewidth
dashed
0 0 0 edgecolor
newpath 89.75 240.83 moveto
89.75 240.83 89.75 215.41 89.75 215.41 curveto
stroke
0 0 0 edgecolor
newpath 89.75 205.41 moveto
94.25 215.41 lineto
89.75 210.41 lineto
89.75 215.41 lineto
89.75 215.41 lineto
89.75 215.41 lineto
89.75 210.41 lineto
85.25 215.41 lineto
89.75 205.41 lineto
closepath fill
1 setlinewidth
solid
0 0 0 edgecolor
newpath 89.75 205.41 moveto
94.25 215.41 lineto
89.75 210.41 lineto
89.75 215.41 lineto
89.75 215.41 lineto
89.75 215.41 lineto
89.75 210.41 lineto
85.25 215.41 lineto
89.75 205.41 lineto
closepath stroke
grestore
% QObject
gsave
0.35185 0.050279 0.70196 nodecolor
newpath 407.5 52 moveto
342.5 52 lineto
342.5 16 lineto
407.5 16 lineto
closepath fill
1 setlinewidth
filled
0 0 0 nodecolor
newpath 407.5 52 moveto
342.5 52 lineto
342.5 16 lineto
407.5 16 lineto
closepath stroke
0 0 0 nodecolor
14 /Times-Roman set_font
350.5 30.3 moveto 49 (QObject) alignedtext
grestore
% QMetaModelPlugin->QObject
gsave
1 setlinewidth
0 0 0 edgecolor
newpath 148.83 240.58 moveto
148.83 231.72 148.83 223 148.83 223 curveto
148.83 223 381.5 223 381.5 223 curveto
381.5 223 381.5 67.12 381.5 67.12 curveto
stroke
1 setlinewidth
solid
0 0 0 edgecolor
newpath 386.75 67.12 moveto
381.5 52.12 lineto
376.25 67.12 lineto
closepath stroke
grestore
% QModelingObject
gsave
0.18421 0.159 0.93725 nodecolor
newpath 159.5 133 moveto
42.5 133 lineto
42.5 97 lineto
159.5 97 lineto
closepath fill
1 setlinewidth
filled
0 0 0 nodecolor
newpath 159.5 133 moveto
42.5 133 lineto
42.5 97 lineto
159.5 97 lineto
closepath stroke
0 0 0 nodecolor
14 /Times-Roman set_font
50.5 111.3 moveto 101 (QModelingObject) alignedtext
grestore
% QModelingElement->QModelingObject
gsave
1 setlinewidth
dashed
0 0 0 edgecolor
newpath 76.17 168.83 moveto
76.17 168.83 76.17 143.41 76.17 143.41 curveto
stroke
0 0 0 edgecolor
newpath 76.17 133.41 moveto
80.67 143.41 lineto
76.17 138.41 lineto
76.17 143.41 lineto
76.17 143.41 lineto
76.17 143.41 lineto
76.17 138.41 lineto
71.67 143.41 lineto
76.17 133.41 lineto
closepath fill
1 setlinewidth
solid
0 0 0 edgecolor
newpath 76.17 133.41 moveto
80.67 143.41 lineto
76.17 138.41 lineto
76.17 143.41 lineto
76.17 143.41 lineto
76.17 143.41 lineto
76.17 138.41 lineto
71.67 143.41 lineto
76.17 133.41 lineto
closepath stroke
grestore
% QModelingObject->QModelingElement
gsave
1 setlinewidth
dashed
0 0 0 edgecolor
newpath 109.83 133.17 moveto
109.83 133.17 109.83 158.59 109.83 158.59 curveto
stroke
0 0 0 edgecolor
newpath 109.83 168.59 moveto
105.33 158.59 lineto
109.83 163.59 lineto
109.83 158.59 lineto
109.83 158.59 lineto
109.83 158.59 lineto
109.83 163.59 lineto
114.33 158.59 lineto
109.83 168.59 lineto
closepath fill
1 setlinewidth
solid
0 0 0 edgecolor
newpath 109.83 168.59 moveto
105.33 158.59 lineto
109.83 163.59 lineto
109.83 158.59 lineto
109.83 158.59 lineto
109.83 158.59 lineto
109.83 163.59 lineto
114.33 158.59 lineto
109.83 168.59 lineto
closepath stroke
grestore
% QModelingObject->QObject
gsave
1 setlinewidth
0 0 0 edgecolor
newpath 159.71 109 moveto
234.87 109 355.5 109 355.5 109 curveto
355.5 109 355.5 67.16 355.5 67.16 curveto
stroke
1 setlinewidth
solid
0 0 0 edgecolor
newpath 360.75 67.16 moveto
355.5 52.16 lineto
350.25 67.16 lineto
closepath stroke
grestore
% QXmiReader
gsave
0.18421 0.159 0.93725 nodecolor
newpath 307 277 moveto
217 277 lineto
217 241 lineto
307 241 lineto
closepath fill
1 setlinewidth
filled
0 0 0 nodecolor
newpath 307 277 moveto
217 277 lineto
217 241 lineto
307 241 lineto
closepath stroke
0 0 0 nodecolor
14 /Times-Roman set_font
225 255.3 moveto 74 (QXmiReader) alignedtext
grestore
% QXmiReader->QModelingElement
gsave
1 setlinewidth
dashed
0 0 0 edgecolor
newpath 216.6 265 moveto
202.07 265 189.67 265 189.67 265 curveto
189.67 265 189.67 193 189.67 193 curveto
189.67 193 153.79 193 153.79 193 curveto
stroke
0 0 0 edgecolor
newpath 143.79 193 moveto
153.79 188.5 lineto
148.79 193 lineto
153.79 193 lineto
153.79 193 lineto
153.79 193 lineto
148.79 193 lineto
153.79 197.5 lineto
143.79 193 lineto
closepath fill
1 setlinewidth
solid
0 0 0 edgecolor
newpath 143.79 193 moveto
153.79 188.5 lineto
148.79 193 lineto
153.79 193 lineto
153.79 193 lineto
153.79 193 lineto
148.79 193 lineto
153.79 197.5 lineto
143.79 193 lineto
closepath stroke
grestore
% QXmiReader->QModelingObject
gsave
1 setlinewidth
dashed
0 0 0 edgecolor
newpath 216.94 253 moveto
209.06 253 203.33 253 203.33 253 curveto
203.33 253 203.33 121 203.33 121 curveto
203.33 121 169.64 121 169.64 121 curveto
stroke
0 0 0 edgecolor
newpath 159.64 121 moveto
169.64 116.5 lineto
164.64 121 lineto
169.64 121 lineto
169.64 121 lineto
169.64 121 lineto
164.64 121 lineto
169.64 125.5 lineto
159.64 121 lineto
closepath fill
1 setlinewidth
solid
0 0 0 edgecolor
newpath 159.64 121 moveto
169.64 116.5 lineto
164.64 121 lineto
169.64 121 lineto
169.64 121 lineto
169.64 121 lineto
164.64 121 lineto
169.64 125.5 lineto
159.64 121 lineto
closepath stroke
grestore
% QXmiReader->QObject
gsave
1 setlinewidth
0 0 0 edgecolor
newpath 307.23 250 moveto
345.61 250 394.5 250 394.5 250 curveto
394.5 250 394.5 67.04 394.5 67.04 curveto
stroke
1 setlinewidth
solid
0 0 0 edgecolor
newpath 399.75 67.04 moveto
394.5 52.04 lineto
389.25 67.04 lineto
closepath stroke
grestore
% QXmlStreamReader
gsave
0.35185 0.050279 0.70196 nodecolor
newpath 711.5 52 moveto
580.5 52 lineto
580.5 16 lineto
711.5 16 lineto
closepath fill
1 setlinewidth
filled
0 0 0 nodecolor
newpath 711.5 52 moveto
580.5 52 lineto
580.5 16 lineto
711.5 16 lineto
closepath stroke
0 0 0 nodecolor
14 /Times-Roman set_font
588.5 30.3 moveto 115 (QXmlStreamReader) alignedtext
grestore
% QXmiReader->QXmlStreamReader
gsave
1 setlinewidth
dashed
0 0 0 edgecolor
newpath 307.18 268 moveto
408.69 268 646 268 646 268 curveto
646 268 646 62.36 646 62.36 curveto
stroke
0 0 0 edgecolor
newpath 646 52.36 moveto
650.5 62.36 lineto
646 57.36 lineto
646 62.36 lineto
646 62.36 lineto
646 62.36 lineto
646 57.36 lineto
641.5 62.36 lineto
646 52.36 lineto
closepath fill
1 setlinewidth
solid
0 0 0 edgecolor
newpath 646 52.36 moveto
650.5 62.36 lineto
646 57.36 lineto
646 62.36 lineto
646 62.36 lineto
646 62.36 lineto
646 57.36 lineto
641.5 62.36 lineto
646 52.36 lineto
closepath stroke
grestore
% QPluginLoader
gsave
0.35185 0.050279 0.70196 nodecolor
newpath 544.5 52 moveto
443.5 52 lineto
443.5 16 lineto
544.5 16 lineto
closepath fill
1 setlinewidth
filled
0 0 0 nodecolor
newpath 544.5 52 moveto
443.5 52 lineto
443.5 16 lineto
544.5 16 lineto
closepath stroke
0 0 0 nodecolor
14 /Times-Roman set_font
451.5 30.3 moveto 85 (QPluginLoader) alignedtext
grestore
% QXmiReader->QPluginLoader
gsave
1 setlinewidth
dashed
0 0 0 edgecolor
newpath 307.06 259 moveto
378.77 259 510.83 259 510.83 259 curveto
510.83 259 510.83 62.03 510.83 62.03 curveto
stroke
0 0 0 edgecolor
newpath 510.83 52.03 moveto
515.33 62.03 lineto
510.83 57.03 lineto
510.83 62.03 lineto
510.83 62.03 lineto
510.83 62.03 lineto
510.83 57.03 lineto
506.33 62.03 lineto
510.83 52.03 lineto
closepath fill
1 setlinewidth
solid
0 0 0 edgecolor
newpath 510.83 52.03 moveto
515.33 62.03 lineto
510.83 57.03 lineto
510.83 62.03 lineto
510.83 62.03 lineto
510.83 62.03 lineto
510.83 57.03 lineto
506.33 62.03 lineto
510.83 52.03 lineto
closepath stroke
grestore
% QXmiWriter
gsave
0.18421 0.159 0.93725 nodecolor
newpath 307.5 205 moveto
218.5 205 lineto
218.5 169 lineto
307.5 169 lineto
closepath fill
1 setlinewidth
filled
0 0 0 nodecolor
newpath 307.5 205 moveto
218.5 205 lineto
218.5 169 lineto
307.5 169 lineto
closepath stroke
0 0 0 nodecolor
14 /Times-Roman set_font
226.5 183.3 moveto 73 (QXmiWriter) alignedtext
grestore
% QXmiWriter->QModelingObject
gsave
1 setlinewidth
dashed
0 0 0 edgecolor
newpath 218.42 181 moveto
188.36 181 154.17 181 154.17 181 curveto
154.17 181 154.17 143.03 154.17 143.03 curveto
stroke
0 0 0 edgecolor
newpath 154.17 133.03 moveto
158.67 143.03 lineto
154.17 138.03 lineto
154.17 143.03 lineto
154.17 143.03 lineto
154.17 143.03 lineto
154.17 138.03 lineto
149.67 143.03 lineto
154.17 133.03 lineto
closepath fill
1 setlinewidth
solid
0 0 0 edgecolor
newpath 154.17 133.03 moveto
158.67 143.03 lineto
154.17 138.03 lineto
154.17 143.03 lineto
154.17 143.03 lineto
154.17 143.03 lineto
154.17 138.03 lineto
149.67 143.03 lineto
154.17 133.03 lineto
closepath stroke
grestore
% QXmiWriter->QObject
gsave
1 setlinewidth
0 0 0 edgecolor
newpath 307.74 181 moveto
336.5 181 368.5 181 368.5 181 curveto
368.5 181 368.5 67.03 368.5 67.03 curveto
stroke
1 setlinewidth
solid
0 0 0 edgecolor
newpath 373.75 67.03 moveto
368.5 52.03 lineto
363.25 67.03 lineto
closepath stroke
grestore
% QXmlStreamWriter
gsave
0.35185 0.050279 0.70196 nodecolor
newpath 306 52 moveto
176 52 lineto
176 16 lineto
306 16 lineto
closepath fill
1 setlinewidth
filled
0 0 0 nodecolor
newpath 306 52 moveto
176 52 lineto
176 16 lineto
306 16 lineto
closepath stroke
0 0 0 nodecolor
14 /Times-Roman set_font
184 30.3 moveto 114 (QXmlStreamWriter) alignedtext
grestore
% QXmiWriter->QXmlStreamWriter
gsave
1 setlinewidth
dashed
0 0 0 edgecolor
newpath 262.25 168.85 moveto
262.25 168.85 262.25 62.13 262.25 62.13 curveto
stroke
0 0 0 edgecolor
newpath 262.25 52.13 moveto
266.75 62.13 lineto
262.25 57.13 lineto
262.25 62.13 lineto
262.25 62.13 lineto
262.25 62.13 lineto
262.25 57.13 lineto
257.75 62.13 lineto
262.25 52.13 lineto
closepath fill
1 setlinewidth
solid
0 0 0 edgecolor
newpath 262.25 52.13 moveto
266.75 62.13 lineto
262.25 57.13 lineto
262.25 62.13 lineto
262.25 62.13 lineto
262.25 62.13 lineto
262.25 57.13 lineto
257.75 62.13 lineto
262.25 52.13 lineto
closepath stroke
grestore
% QXmiWriter->QPluginLoader
gsave
1 setlinewidth
dashed
0 0 0 edgecolor
newpath 307.64 193 moveto
370.4 193 477.17 193 477.17 193 curveto
477.17 193 477.17 62.24 477.17 62.24 curveto
stroke
0 0 0 edgecolor
newpath 477.17 52.24 moveto
481.67 62.24 lineto
477.17 57.24 lineto
477.17 62.24 lineto
477.17 62.24 lineto
477.17 62.24 lineto
477.17 57.24 lineto
472.67 62.24 lineto
477.17 52.24 lineto
closepath fill
1 setlinewidth
solid
0 0 0 edgecolor
newpath 477.17 52.24 moveto
481.67 62.24 lineto
477.17 57.24 lineto
477.17 62.24 lineto
477.17 62.24 lineto
477.17 62.24 lineto
477.17 57.24 lineto
472.67 62.24 lineto
477.17 52.24 lineto
closepath stroke
grestore
endpage
showpage
grestore
%%PageTrailer
%%EndPage: 1
%%Trailer
end
restore
%%EOF
