%!PS-Adobe-3.0 EPSF-3.0
%%Creator: graphviz version 2.38.0 (20140413.2041)
%%Title: G
%%Pages: 1
%%BoundingBox: 36 36 1025 386
%%EndComments
save
%%BeginProlog
/DotDict 200 dict def
DotDict begin

/setupLatin1 {
mark
/EncodingVector 256 array def
 EncodingVector 0

ISOLatin1Encoding 0 255 getinterval putinterval
EncodingVector 45 /hyphen put

% Set up ISO Latin 1 character encoding
/starnetISO {
        dup dup findfont dup length dict begin
        { 1 index /FID ne { def }{ pop pop } ifelse
        } forall
        /Encoding EncodingVector def
        currentdict end definefont
} def
/Times-Roman starnetISO def
/Times-Italic starnetISO def
/Times-Bold starnetISO def
/Times-BoldItalic starnetISO def
/Helvetica starnetISO def
/Helvetica-Oblique starnetISO def
/Helvetica-Bold starnetISO def
/Helvetica-BoldOblique starnetISO def
/Courier starnetISO def
/Courier-Oblique starnetISO def
/Courier-Bold starnetISO def
/Courier-BoldOblique starnetISO def
cleartomark
} bind def

%%BeginResource: procset graphviz 0 0
/coord-font-family /Times-Roman def
/default-font-family /Times-Roman def
/coordfont coord-font-family findfont 8 scalefont def

/InvScaleFactor 1.0 def
/set_scale {
       dup 1 exch div /InvScaleFactor exch def
       scale
} bind def

% styles
/solid { [] 0 setdash } bind def
/dashed { [9 InvScaleFactor mul dup ] 0 setdash } bind def
/dotted { [1 InvScaleFactor mul 6 InvScaleFactor mul] 0 setdash } bind def
/invis {/fill {newpath} def /stroke {newpath} def /show {pop newpath} def} bind def
/bold { 2 setlinewidth } bind def
/filled { } bind def
/unfilled { } bind def
/rounded { } bind def
/diagonals { } bind def
/tapered { } bind def

% hooks for setting color 
/nodecolor { sethsbcolor } bind def
/edgecolor { sethsbcolor } bind def
/graphcolor { sethsbcolor } bind def
/nopcolor {pop pop pop} bind def

/beginpage {	% i j npages
	/npages exch def
	/j exch def
	/i exch def
	/str 10 string def
	npages 1 gt {
		gsave
			coordfont setfont
			0 0 moveto
			(\() show i str cvs show (,) show j str cvs show (\)) show
		grestore
	} if
} bind def

/set_font {
	findfont exch
	scalefont setfont
} def

% draw text fitted to its expected width
/alignedtext {			% width text
	/text exch def
	/width exch def
	gsave
		width 0 gt {
			[] 0 setdash
			text stringwidth pop width exch sub text length div 0 text ashow
		} if
	grestore
} def

/boxprim {				% xcorner ycorner xsize ysize
		4 2 roll
		moveto
		2 copy
		exch 0 rlineto
		0 exch rlineto
		pop neg 0 rlineto
		closepath
} bind def

/ellipse_path {
	/ry exch def
	/rx exch def
	/y exch def
	/x exch def
	matrix currentmatrix
	newpath
	x y translate
	rx ry scale
	0 0 1 0 360 arc
	setmatrix
} bind def

/endpage { showpage } bind def
/showpage { } def

/layercolorseq
	[	% layer color sequence - darkest to lightest
		[0 0 0]
		[.2 .8 .8]
		[.4 .8 .8]
		[.6 .8 .8]
		[.8 .8 .8]
	]
def

/layerlen layercolorseq length def

/setlayer {/maxlayer exch def /curlayer exch def
	layercolorseq curlayer 1 sub layerlen mod get
	aload pop sethsbcolor
	/nodecolor {nopcolor} def
	/edgecolor {nopcolor} def
	/graphcolor {nopcolor} def
} bind def

/onlayer { curlayer ne {invis} if } def

/onlayers {
	/myupper exch def
	/mylower exch def
	curlayer mylower lt
	curlayer myupper gt
	or
	{invis} if
} def

/curlayer 0 def

%%EndResource
%%EndProlog
%%BeginSetup
14 default-font-family set_font
1 setmiterlimit
% /arrowlength 10 def
% /arrowwidth 5 def

% make sure pdfmark is harmless for PS-interpreters other than Distiller
/pdfmark where {pop} {userdict /pdfmark /cleartomark load put} ifelse
% make '<<' and '>>' safe on PS Level 1 devices
/languagelevel where {pop languagelevel}{1} ifelse
2 lt {
    userdict (<<) cvn ([) cvn load put
    userdict (>>) cvn ([) cvn load put
} if

%%EndSetup
setupLatin1
%%Page: 1 1
%%PageBoundingBox: 36 36 1025 386
%%PageOrientation: Portrait
0 0 1 beginpage
gsave
36 36 989 350 boxprim clip newpath
1 1 set_scale 0 rotate 40 40 translate
% cluster_qtcore
gsave
0.35 0.041841 0.93725 graphcolor
newpath 857 8 moveto
857 8 943 8 943 8 curveto
949 8 955 14 955 20 curveto
955 20 955 97 955 97 curveto
955 103 949 109 943 109 curveto
943 109 857 109 857 109 curveto
851 109 845 103 845 97 curveto
845 97 845 20 845 20 curveto
845 14 851 8 857 8 curveto
closepath fill
1 setlinewidth
filled
0 0 0 graphcolor
newpath 857 8 moveto
857 8 943 8 943 8 curveto
949 8 955 14 955 20 curveto
955 20 955 97 955 97 curveto
955 103 949 109 943 109 curveto
943 109 857 109 857 109 curveto
851 109 845 103 845 97 curveto
845 97 845 20 845 20 curveto
845 14 851 8 857 8 curveto
stroke
0 0 0 graphcolor
12 /typewriter-bold set_font
875 15.4 moveto 50 (Qt5Core) alignedtext
grestore
% cluster_qtoptimization
gsave
0.17593 0.072581 0.97255 graphcolor
newpath 20 117 moveto
20 117 961 117 961 117 curveto
967 117 973 123 973 129 curveto
973 129 973 322 973 322 curveto
973 328 967 334 961 334 curveto
961 334 20 334 20 334 curveto
14 334 8 328 8 322 curveto
8 322 8 129 8 129 curveto
8 123 14 117 20 117 curveto
closepath fill
1 setlinewidth
filled
0 0 0 graphcolor
newpath 20 117 moveto
20 117 961 117 961 117 curveto
967 117 973 123 973 129 curveto
973 129 973 322 973 322 curveto
973 328 967 334 961 334 curveto
961 334 20 334 20 334 curveto
14 334 8 328 8 322 curveto
8 322 8 129 8 129 curveto
8 123 14 117 20 117 curveto
stroke
0 0 0 graphcolor
12 /typewriter-bold set_font
443 320.4 moveto 95 (Qt5Optimization) alignedtext
grestore
% QObject
gsave
0.35185 0.050279 0.70196 nodecolor
newpath 932.5 87 moveto
867.5 87 lineto
867.5 51 lineto
932.5 51 lineto
closepath fill
1 setlinewidth
filled
0 0 0 nodecolor
newpath 932.5 87 moveto
867.5 87 lineto
867.5 51 lineto
932.5 51 lineto
closepath stroke
0 0 0 nodecolor
14 /Times-Roman set_font
875.5 65.3 moveto 49 (QObject) alignedtext
grestore
% QOptimizationAlgorithm
gsave
0.18421 0.159 0.93725 nodecolor
newpath 832 233 moveto
670 233 lineto
670 197 lineto
832 197 lineto
closepath fill
1 setlinewidth
filled
0 0 0 nodecolor
newpath 832 233 moveto
670 233 lineto
670 197 lineto
832 197 lineto
closepath stroke
0 0 0 nodecolor
14 /Times-Roman set_font
678 211.3 moveto 146 (QOptimizationAlgorithm) alignedtext
grestore
% QOptimizationAlgorithm->QObject
gsave
1 setlinewidth
0 0 0 edgecolor
newpath 802.33 196.94 moveto
802.33 159.95 802.33 79 802.33 79 curveto
802.33 79 852.48 79 852.48 79 curveto
stroke
1 setlinewidth
solid
0 0 0 edgecolor
newpath 852.48 84.25 moveto
867.48 79 lineto
852.48 73.75 lineto
closepath stroke
grestore
% QSelectionOperator
gsave
0.18421 0.159 0.93725 nodecolor
newpath 498 161 moveto
368 161 lineto
368 125 lineto
498 125 lineto
closepath fill
1 setlinewidth
filled
0 0 0 nodecolor
newpath 498 161 moveto
368 161 lineto
368 125 lineto
498 125 lineto
closepath stroke
0 0 0 nodecolor
14 /Times-Roman set_font
376 139.3 moveto 114 (QSelectionOperator) alignedtext
grestore
% QOptimizationAlgorithm->QSelectionOperator
gsave
1 setlinewidth
dashed
0 0 0 edgecolor
newpath 669.77 209 moveto
590.01 209 480.25 209 480.25 209 curveto
480.25 209 480.25 171.03 480.25 171.03 curveto
stroke
0 0 0 edgecolor
newpath 480.25 161.03 moveto
484.75 171.03 lineto
480.25 166.03 lineto
480.25 171.03 lineto
480.25 171.03 lineto
480.25 171.03 lineto
480.25 166.03 lineto
475.75 171.03 lineto
480.25 161.03 lineto
closepath fill
1 setlinewidth
solid
0 0 0 edgecolor
newpath 480.25 161.03 moveto
484.75 171.03 lineto
480.25 166.03 lineto
480.25 171.03 lineto
480.25 171.03 lineto
480.25 171.03 lineto
480.25 166.03 lineto
475.75 171.03 lineto
480.25 161.03 lineto
closepath stroke
grestore
% QMutationOperator
gsave
0.18421 0.159 0.93725 nodecolor
newpath 965 161 moveto
835 161 lineto
835 125 lineto
965 125 lineto
closepath fill
1 setlinewidth
filled
0 0 0 nodecolor
newpath 965 161 moveto
835 161 lineto
835 125 lineto
965 125 lineto
closepath stroke
0 0 0 nodecolor
14 /Times-Roman set_font
843 139.3 moveto 114 (QMutationOperator) alignedtext
grestore
% QOptimizationAlgorithm->QMutationOperator
gsave
1 setlinewidth
dashed
0 0 0 edgecolor
newpath 817.17 196.83 moveto
817.17 175.5 817.17 143 817.17 143 curveto
817.17 143 824.73 143 824.73 143 curveto
stroke
0 0 0 edgecolor
newpath 834.73 143 moveto
824.73 147.5 lineto
829.73 143 lineto
824.73 143 lineto
824.73 143 lineto
824.73 143 lineto
829.73 143 lineto
824.73 138.5 lineto
834.73 143 lineto
closepath fill
1 setlinewidth
solid
0 0 0 edgecolor
newpath 834.73 143 moveto
824.73 147.5 lineto
829.73 143 lineto
824.73 143 lineto
824.73 143 lineto
824.73 143 lineto
829.73 143 lineto
824.73 138.5 lineto
834.73 143 lineto
closepath stroke
grestore
% QCrossoverOperator
gsave
0.18421 0.159 0.93725 nodecolor
newpath 679 161 moveto
545 161 lineto
545 125 lineto
679 125 lineto
closepath fill
1 setlinewidth
filled
0 0 0 nodecolor
newpath 679 161 moveto
545 161 lineto
545 125 lineto
679 125 lineto
closepath stroke
0 0 0 nodecolor
14 /Times-Roman set_font
553 139.3 moveto 118 (QCrossoverOperator) alignedtext
grestore
% QOptimizationAlgorithm->QCrossoverOperator
gsave
1 setlinewidth
dashed
0 0 0 edgecolor
newpath 674.5 196.83 moveto
674.5 196.83 674.5 171.41 674.5 171.41 curveto
stroke
0 0 0 edgecolor
newpath 674.5 161.41 moveto
679 171.41 lineto
674.5 166.41 lineto
674.5 171.41 lineto
674.5 171.41 lineto
674.5 171.41 lineto
674.5 166.41 lineto
670 171.41 lineto
674.5 161.41 lineto
closepath fill
1 setlinewidth
solid
0 0 0 edgecolor
newpath 674.5 161.41 moveto
679 171.41 lineto
674.5 166.41 lineto
674.5 171.41 lineto
674.5 171.41 lineto
674.5 171.41 lineto
674.5 166.41 lineto
670 171.41 lineto
674.5 161.41 lineto
closepath stroke
grestore
% QOptimizationProblem
gsave
0.18421 0.159 0.93725 nodecolor
newpath 343.5 233 moveto
194.5 233 lineto
194.5 197 lineto
343.5 197 lineto
closepath fill
1 setlinewidth
filled
0 0 0 nodecolor
newpath 343.5 233 moveto
194.5 233 lineto
194.5 197 lineto
343.5 197 lineto
closepath stroke
0 0 0 nodecolor
14 /Times-Roman set_font
202.5 211.3 moveto 133 (QOptimizationProblem) alignedtext
grestore
% QOptimizationProblem->QObject
gsave
1 setlinewidth
0 0 0 edgecolor
newpath 332.25 196.99 moveto
332.25 155.75 332.25 58 332.25 58 curveto
332.25 58 852.44 58 852.44 58 curveto
stroke
1 setlinewidth
solid
0 0 0 edgecolor
newpath 852.44 63.25 moveto
867.44 58 lineto
852.44 52.75 lineto
closepath stroke
grestore
% QOptimizationProblem->QOptimizationAlgorithm
gsave
1 setlinewidth
dashed
0 0 0 edgecolor
newpath 343.52 221 moveto
343.52 221 659.91 221 659.91 221 curveto
stroke
0 0 0 edgecolor
newpath 669.91 221 moveto
659.91 225.5 lineto
664.91 221 lineto
659.91 221 lineto
659.91 221 lineto
659.91 221 lineto
664.91 221 lineto
659.91 216.5 lineto
669.91 221 lineto
closepath fill
1 setlinewidth
solid
0 0 0 edgecolor
newpath 669.91 221 moveto
659.91 225.5 lineto
664.91 221 lineto
659.91 221 lineto
659.91 221 lineto
659.91 221 lineto
664.91 221 lineto
659.91 216.5 lineto
669.91 221 lineto
closepath stroke
grestore
% QIndividualFactory
gsave
0.18421 0.159 0.93725 nodecolor
newpath 142 161 moveto
16 161 lineto
16 125 lineto
142 125 lineto
closepath fill
1 setlinewidth
filled
0 0 0 nodecolor
newpath 142 161 moveto
16 161 lineto
16 125 lineto
142 125 lineto
closepath stroke
0 0 0 nodecolor
14 /Times-Roman set_font
24 139.3 moveto 110 (QIndividualFactory) alignedtext
grestore
% QOptimizationProblem->QIndividualFactory
gsave
1 setlinewidth
dashed
0 0 0 edgecolor
newpath 194.45 215 moveto
141.22 215 79 215 79 215 curveto
79 215 79 171.17 79 171.17 curveto
stroke
0 0 0 edgecolor
newpath 79 161.17 moveto
83.5 171.17 lineto
79 166.17 lineto
79 171.17 lineto
79 171.17 lineto
79 171.17 lineto
79 166.17 lineto
74.5 171.17 lineto
79 161.17 lineto
closepath fill
1 setlinewidth
solid
0 0 0 edgecolor
newpath 79 161.17 moveto
83.5 171.17 lineto
79 166.17 lineto
79 171.17 lineto
79 171.17 lineto
79 171.17 lineto
79 166.17 lineto
74.5 171.17 lineto
79 161.17 lineto
closepath stroke
grestore
% QObjectiveFunction
gsave
0.18421 0.159 0.93725 nodecolor
newpath 321 161 moveto
189 161 lineto
189 125 lineto
321 125 lineto
closepath fill
1 setlinewidth
filled
0 0 0 nodecolor
newpath 321 161 moveto
189 161 lineto
189 125 lineto
321 125 lineto
closepath stroke
0 0 0 nodecolor
14 /Times-Roman set_font
197 139.3 moveto 116 (QObjectiveFunction) alignedtext
grestore
% QOptimizationProblem->QObjectiveFunction
gsave
1 setlinewidth
dashed
0 0 0 edgecolor
newpath 257.75 196.83 moveto
257.75 196.83 257.75 171.41 257.75 171.41 curveto
stroke
0 0 0 edgecolor
newpath 257.75 161.41 moveto
262.25 171.41 lineto
257.75 166.41 lineto
257.75 171.41 lineto
257.75 171.41 lineto
257.75 171.41 lineto
257.75 166.41 lineto
253.25 171.41 lineto
257.75 161.41 lineto
closepath fill
1 setlinewidth
solid
0 0 0 edgecolor
newpath 257.75 161.41 moveto
262.25 171.41 lineto
257.75 166.41 lineto
257.75 171.41 lineto
257.75 171.41 lineto
257.75 171.41 lineto
257.75 166.41 lineto
253.25 171.41 lineto
257.75 161.41 lineto
closepath stroke
grestore
% QBitwiseMutationOperator
gsave
0.18421 0.159 0.93725 nodecolor
newpath 964.5 305 moveto
793.5 305 lineto
793.5 269 lineto
964.5 269 lineto
closepath fill
1 setlinewidth
filled
0 0 0 nodecolor
newpath 964.5 305 moveto
793.5 305 lineto
793.5 269 lineto
964.5 269 lineto
closepath stroke
0 0 0 nodecolor
14 /Times-Roman set_font
801.5 283.3 moveto 155 (QBitwiseMutationOperator) alignedtext
grestore
% QBitwiseMutationOperator->QMutationOperator
gsave
1 setlinewidth
dashed
0 0 0 edgecolor
newpath 899.75 268.76 moveto
899.75 268.76 899.75 176.09 899.75 176.09 curveto
stroke
1 setlinewidth
solid
0 0 0 edgecolor
newpath 905 176.09 moveto
899.75 161.09 lineto
894.5 176.09 lineto
closepath stroke
grestore
% QTwoPointBinaryCrossoverOperator
gsave
0.18421 0.159 0.93725 nodecolor
newpath 736.5 305 moveto
509.5 305 lineto
509.5 269 lineto
736.5 269 lineto
closepath fill
1 setlinewidth
filled
0 0 0 nodecolor
newpath 736.5 305 moveto
509.5 305 lineto
509.5 269 lineto
736.5 269 lineto
closepath stroke
0 0 0 nodecolor
14 /Times-Roman set_font
517.5 283.3 moveto 211 (QTwoPointBinaryCrossoverOperator) alignedtext
grestore
% QTwoPointBinaryCrossoverOperator->QCrossoverOperator
gsave
1 setlinewidth
dashed
0 0 0 edgecolor
newpath 607.5 268.76 moveto
607.5 268.76 607.5 176.09 607.5 176.09 curveto
stroke
1 setlinewidth
solid
0 0 0 edgecolor
newpath 612.75 176.09 moveto
607.5 161.09 lineto
602.25 176.09 lineto
closepath stroke
grestore
% QCDTournamentSelectionOperator
gsave
0.18421 0.159 0.93725 nodecolor
newpath 462.5 305 moveto
243.5 305 lineto
243.5 269 lineto
462.5 269 lineto
closepath fill
1 setlinewidth
filled
0 0 0 nodecolor
newpath 462.5 305 moveto
243.5 305 lineto
243.5 269 lineto
462.5 269 lineto
closepath stroke
0 0 0 nodecolor
14 /Times-Roman set_font
251.5 283.3 moveto 203 (QCDTournamentSelectionOperator) alignedtext
grestore
% QCDTournamentSelectionOperator->QSelectionOperator
gsave
1 setlinewidth
dashed
0 0 0 edgecolor
newpath 415.25 268.76 moveto
415.25 268.76 415.25 176.09 415.25 176.09 curveto
stroke
1 setlinewidth
solid
0 0 0 edgecolor
newpath 420.5 176.09 moveto
415.25 161.09 lineto
410 176.09 lineto
closepath stroke
grestore
% QSelectionOperator->QObject
gsave
1 setlinewidth
0 0 0 edgecolor
newpath 433 124.91 moveto
433 101.87 433 65 433 65 curveto
433 65 852.16 65 852.16 65 curveto
stroke
1 setlinewidth
solid
0 0 0 edgecolor
newpath 852.16 70.25 moveto
867.16 65 lineto
852.16 59.75 lineto
closepath stroke
grestore
% QMutationOperator->QObject
gsave
1 setlinewidth
0 0 0 edgecolor
newpath 900 124.71 moveto
900 124.71 900 102.08 900 102.08 curveto
stroke
1 setlinewidth
solid
0 0 0 edgecolor
newpath 905.25 102.08 moveto
900 87.08 lineto
894.75 102.08 lineto
closepath stroke
grestore
% QCrossoverOperator->QObject
gsave
1 setlinewidth
0 0 0 edgecolor
newpath 612 124.72 moveto
612 103.68 612 72 612 72 curveto
612 72 852.24 72 852.24 72 curveto
stroke
1 setlinewidth
solid
0 0 0 edgecolor
newpath 852.24 77.25 moveto
867.24 72 lineto
852.24 66.75 lineto
closepath stroke
grestore
% QNsga2
gsave
0.18421 0.159 0.93725 nodecolor
newpath 787.5 161 moveto
726.5 161 lineto
726.5 125 lineto
787.5 125 lineto
closepath fill
1 setlinewidth
filled
0 0 0 nodecolor
newpath 787.5 161 moveto
726.5 161 lineto
726.5 125 lineto
787.5 125 lineto
closepath stroke
0 0 0 nodecolor
14 /Times-Roman set_font
734.5 139.3 moveto 45 (QNsga2) alignedtext
grestore
% QNsga2->QOptimizationAlgorithm
gsave
1 setlinewidth
0 0 0 edgecolor
newpath 757 161.17 moveto
757 161.17 757 181.59 757 181.59 curveto
stroke
1 setlinewidth
solid
0 0 0 edgecolor
newpath 751.75 181.59 moveto
757 196.59 lineto
762.25 181.59 lineto
closepath stroke
grestore
endpage
showpage
grestore
%%PageTrailer
%%EndPage: 1
%%Trailer
end
restore
%%EOF
