   0.0000000000000000        0.0000000000000000     
  1.00000000000000002E-002  3.93089199832574645E-003
  2.00000000000000004E-002  1.54285534714981073E-002
  2.99999999999999989E-002  3.40118926254721204E-002
  4.00000000000000008E-002  5.91542238514743066E-002
  5.00000000000000028E-002  9.02906244343794351E-002
  5.99999999999999978E-002  0.12682530512980003     
  7.00000000000000067E-002  0.16813892206938597     
  8.00000000000000017E-002  0.21359576170371877     
  8.99999999999999967E-002  0.26255073479016755     
  0.10000000000000001       0.31435612067278945     
  0.11000000000000000       0.36836800832393524     
  0.12000000000000000       0.42395238608540509     
  0.13000000000000000       0.48049083793414132     
  0.14000000000000001       0.53738580995655849     
  0.14999999999999999       0.59406541664629398     
  0.16000000000000000       0.64998776262949942     
  0.17000000000000001       0.70464476133774856     
  0.17999999999999999       0.75756543793974696     
  0.19000000000000000       0.80831870949420848     
  0.20000000000000001       0.85651564072951347     
  0.20999999999999999       0.90181117903844477     
  0.22000000000000000       0.94390537717221723     
  0.23000000000000001       0.98254411671194997     
  0.23999999999999999        1.0175193496031925     
  0.25000000000000000        1.0486688789137704     
  0.26000000000000001        1.0758757034164110     
  0.27000000000000002        1.0990669536617288     
  0.28000000000000003        1.1182124498307990     
  0.28999999999999998        1.1333229138694576     
  0.29999999999999999        1.1444478701896823     
  0.31000000000000000        1.1516732705866950     
  0.32000000000000001        1.1551188799690444     
  0.33000000000000002        1.1549354600461628     
  0.34000000000000002        1.1513017882745589     
  0.35000000000000003        1.1444215491494711     
  0.35999999999999999        1.1345201343690181     
  0.37000000000000000        1.1218413874964217     
  0.38000000000000000        1.1066443275515938     
  0.39000000000000001        1.0891998845021926     
  0.40000000000000002        1.0697876778792874     
  0.41000000000000003        1.0486928678106788     
  0.41999999999999998        1.0262031056349425     
  0.42999999999999999        1.0026056089636872     
  0.44000000000000000       0.97818438360207138     
  0.45000000000000001       0.95321761228566138     
  0.46000000000000002       0.92797522750107997     
  0.47000000000000003       0.90271668309725417     
  0.47999999999999998       0.87768893670256332     
  0.48999999999999999       0.85312465232569357     
  0.50000000000000000       0.82924062991947767     
  0.51000000000000001       0.80623646615095279     
  0.52000000000000002       0.78429344815453639     
  0.53000000000000003       0.76357367966670264     
  0.54000000000000004       0.74421943675453472     
  0.55000000000000004       0.72635274820362683     
  0.56000000000000005       0.71007519369520011     
  0.57000000000000006       0.69546791112502693     
  0.57999999999999996       0.68259180279145293     
  0.58999999999999997       0.67148792875949503     
  0.59999999999999998       0.66217807437952869     
  0.60999999999999999       0.65466547801428732     
  0.62000000000000000       0.64893570407160062     
  0.63000000000000000       0.64495764557266289     
  0.64000000000000001       0.64268464044654505     
  0.65000000000000002       0.64205568499524301     
  0.66000000000000003       0.64299672772215066     
  0.67000000000000004       0.64542202751145350     
  0.68000000000000005       0.64923555938120259     
  0.69000000000000006       0.65433245179543265     
  0.70000000000000007       0.66060044025940590     
  0.70999999999999996       0.66792132199404985     
  0.71999999999999997       0.67617239755113534     
  0.72999999999999998       0.68522788594512773     
  0.73999999999999999       0.69496030080229143     
  0.75000000000000000       0.70524177601420401     
  0.76000000000000001       0.71594533043968922     
  0.77000000000000002       0.72694606230122327     
  0.78000000000000003       0.73812226506460199     
  0.79000000000000004       0.74935645775580340     
  0.80000000000000004       0.76053632384568060     
  0.81000000000000005       0.77155555401421383     
  0.82000000000000006       0.78231458926396957     
  0.83000000000000007       0.79272126200391058     
  0.83999999999999997       0.80269133383135771     
  0.84999999999999998       0.81214892980618203     
  0.85999999999999999       0.82102687003763997     
  0.87000000000000000       0.82926690035559569     
  0.88000000000000000       0.83681982474290484     
  0.89000000000000001       0.84364554302782868     
  0.90000000000000002       0.84971299809022316     
  0.91000000000000003       0.85500003750860620     
  0.92000000000000004       0.85949319517201161     
  0.93000000000000005       0.86318739888155205     
  0.94000000000000006       0.86608561041037802     
  0.95000000000000007       0.86819840481642718     
  0.95999999999999996       0.86954349607052106     
  0.96999999999999997       0.87014521625274499     
  0.97999999999999998       0.87003395564033603     
  0.98999999999999999       0.86924557105939015     
  1.00000000000000000       0.86782076982511558     
   1.0100000000000000       0.86580447644244574     
   1.0200000000000000       0.86324518909783676     
   1.0300000000000000       0.86019433270577450     
   1.0400000000000000       0.85670561499066289     
   1.0500000000000000       0.85283439170674236     
   1.0600000000000001       0.84863704676734486     
   1.0700000000000001       0.84417039260346416     
   1.0800000000000001       0.83949109554027312     
   1.0900000000000001       0.83465513067427921     
   1.1000000000000001       0.82971727005397555     
   1.1100000000000001       0.82473060752778415     
   1.1200000000000001       0.81974612315600504     
   1.1300000000000001       0.81481228944285189     
   1.1400000000000001       0.80997472121884129     
   1.1500000000000001       0.80527587045006532     
   1.1599999999999999       0.80075476675835244     
   1.1699999999999999       0.79644680394706779     
   1.1799999999999999       0.79238357237278878     
   1.1899999999999999       0.78859273656615825     
   1.2000000000000000       0.78509795707580432     
   1.2100000000000000       0.78191885515042181     
   1.2200000000000000       0.77907101850650906     
   1.2300000000000000       0.77656604613340097     
   1.2400000000000000       0.77441162977835598     
   1.2500000000000000       0.77261166954078497     
   1.2600000000000000       0.77116642078693731     
   1.2700000000000000       0.77007266941389452     
   1.2800000000000000       0.76932393237954133     
   1.2900000000000000       0.76891068032049115     
   1.3000000000000000       0.76882057899313638     
   1.3100000000000001       0.76903874627504620     
   1.3200000000000001       0.76954802147282819     
   1.3300000000000001       0.77032924369546019     
   1.3400000000000001       0.77136153614681957     
   1.3500000000000001       0.77262259327507088     
   1.3600000000000001       0.77408896784321612     
   1.3700000000000001       0.77573635513392769     
   1.3800000000000001       0.77753987163090454     
   1.3900000000000001       0.77947432577273001     
   1.4000000000000001       0.78151447848072197     
   1.4099999999999999       0.78363529146593303     
   1.4199999999999999       0.78581216146650079     
   1.4299999999999999       0.78802113879487756     
   1.4399999999999999       0.79023912887830783     
   1.4500000000000000       0.79244407565629049     
   1.4600000000000000       0.79461512588463956     
   1.4700000000000000       0.79673277366589401     
   1.4800000000000000       0.79877898488658194     
   1.4900000000000000       0.80073730122316678     
   1.5000000000000000       0.80259292362042267     
   1.5100000000000000       0.80433277562843764     
   1.5200000000000000       0.80594554686249620     
   1.5300000000000000       0.80742171708457067     
   1.5400000000000000       0.80875356165742640     
   1.5500000000000000       0.80993513928111160     
   1.5600000000000001       0.81096226291647344     
   1.5700000000000001       0.81183245503907353     
   1.5800000000000001       0.81254488840680394     
   1.5900000000000001       0.81310031363580781     
   1.6000000000000001       0.81350097493490470     
   1.6100000000000001       0.81375051538895160     
   1.6200000000000001       0.81385387322951541     
   1.6300000000000001       0.81381717054226699     
   1.6400000000000001       0.81364759586376612     
   1.6500000000000001       0.81335328211058266     
   1.6600000000000001       0.81294318125800713     
   1.6699999999999999       0.81242693714818226     
   1.6799999999999999       0.81181475775853185     
   1.6899999999999999       0.81111728820429985     
   1.7000000000000000       0.81034548566433917     
   1.7100000000000000       0.80951049738093839     
   1.7200000000000000       0.80862354274731096     
   1.7300000000000000       0.80769580044266986     
   1.7400000000000000       0.80673830147197101     
   1.7500000000000000       0.80576182886126990     
   1.7600000000000000       0.80477682465588152     
   1.7700000000000000       0.80379330478964084     
   1.7800000000000000       0.80282078224348230     
   1.7900000000000000       0.80186819886659055     
   1.8000000000000000       0.80094386608210733     
   1.8100000000000001       0.80005541463071117     
   1.8200000000000001       0.79920975339731315     
   1.8300000000000001       0.79841303728513746     
   1.8400000000000001       0.79767064399992549     
   1.8500000000000001       0.79698715954066124     
   1.8600000000000001       0.79636637212471839     
   1.8700000000000001       0.79581127416901276     
   1.8800000000000001       0.79532407193815535     
   1.8900000000000001       0.79490620238775345     
   1.9000000000000001       0.79455835667545305     
   1.9100000000000001       0.79428050980087328     
   1.9199999999999999       0.79407195576928147     
   1.9299999999999999       0.79393134769623452     
   1.9399999999999999       0.79385674218465119     
   1.9500000000000000       0.79384564735238383     
   1.9600000000000000       0.79389507388006797     
   1.9700000000000000       0.79400158839665114     
   1.9800000000000000       0.79416136859373854     
   1.9900000000000000       0.79437025946154449     
   2.0000000000000000       0.79462382999796199     
   2.0100000000000002       0.79491742984694447     
   2.0200000000000000       0.79524624533877675     
   2.0300000000000002       0.79560535435739910     
   2.0400000000000000       0.79598977959130335     
   2.0499999999999998       0.79639453975111996     
   2.0600000000000001       0.79681469830447405     
   2.0699999999999998       0.79724540940152933     
   2.0800000000000001       0.79768196068198383     
   2.0899999999999999       0.79811981268893817     
   2.1000000000000001       0.79855463469062338     
   2.1099999999999999       0.79898233669146079     
   2.1200000000000001       0.79939909754731442     
   2.1299999999999999       0.79980138912670284     
   2.1400000000000001       0.80018599637958276     
   2.1499999999999999       0.80055003339106923     
   2.1600000000000001       0.80089095548747891     
   2.1699999999999999       0.80120656737652596     
   2.1800000000000002       0.80149502749800561     
   2.1899999999999999       0.80175484873001102     
   2.2000000000000002       0.80198489559297359     
   2.2100000000000000       0.80218437816666399     
   2.2200000000000002       0.80235284293291920     
   2.2300000000000000       0.80249016079200208     
   2.2400000000000002       0.80259651249911312     
   2.2500000000000000       0.80267237178778450     
   2.2600000000000002       0.80271848646730537     
   2.2700000000000000       0.80273585776642709     
   2.2800000000000002       0.80272571821521665     
   2.2900000000000000       0.80268950835446884     
   2.3000000000000003       0.80262885254870220     
   2.3100000000000001       0.80254553419124486     
   2.3199999999999998       0.80244147056811999     
   2.3300000000000001       0.80231868763988257     
   2.3399999999999999       0.80217929500194463     
   2.3500000000000001       0.80202546123628304     
   2.3599999999999999       0.80185938990787553     
   2.3700000000000001       0.80168329637917712     
   2.3799999999999999       0.80149938564576828     
   2.3900000000000001       0.80130983134512546     
   2.3999999999999999       0.80111675611397470     
   2.4100000000000001       0.80092221338079084     
   2.4199999999999999       0.80072817072654923     
   2.4300000000000002       0.80053649489828738     
   2.4399999999999999       0.80034893853654154     
   2.4500000000000002       0.80016712865570194     
   2.4600000000000000       0.79999255691397853     
   2.4700000000000002       0.79982657167733695     
   2.4800000000000000       0.79967037186431666     
   2.4900000000000002       0.79952500255880887     
   2.5000000000000000       0.79939135232125536     
   2.5100000000000002       0.79927015215506991     
   2.5200000000000000       0.79916197607789174     
   2.5300000000000002       0.79906724318496347     
   2.5400000000000000       0.79898622110929507     
   2.5500000000000003       0.79891903080344806     
   2.5600000000000001       0.79886565252197739     
   2.5699999999999998       0.79882593286992865     
   2.5800000000000001       0.79879959281416957     
   2.5899999999999999       0.79878623653378811     
   2.6000000000000001       0.79878536097304231     
   2.6099999999999999       0.79879636597301629     
   2.6200000000000001       0.79881856485867564     
   2.6299999999999999       0.79885119534708338     
   2.6400000000000001       0.79889343066521123     
   2.6499999999999999       0.79894439075463164     
   2.6600000000000001       0.79900315344892381     
   2.6699999999999999       0.79906876550937445     
   2.6800000000000002       0.79914025343350481     
   2.6899999999999999       0.79921663393082787     
   2.7000000000000002       0.79929692398467556     
   2.7100000000000000       0.79938015041718558     
   2.7200000000000002       0.79946535889867010     
   2.7300000000000000       0.79955162232094679     
   2.7400000000000002       0.79963804850684750     
   2.7500000000000000       0.79972378721014614     
   2.7600000000000002       0.79980803636172526     
   2.7700000000000000       0.79989004751415871     
   2.7800000000000002       0.79996913052183494     
   2.7900000000000000       0.80004465745081577     
   2.8000000000000003       0.80011606566896110     
   2.8100000000000001       0.80018286010264894     
   2.8199999999999998       0.80024461476981024     
   2.8300000000000001       0.80030097360256702     
   2.8399999999999999       0.80035165050521417     
   2.8500000000000001       0.80039642868934846     
   2.8599999999999999       0.80043515941597354     
   2.8700000000000001       0.80046776017257315     
   2.8799999999999999       0.80049421218936445     
   2.8900000000000001       0.80051455752243694     
   2.8999999999999999       0.80052889574424990     
   2.9100000000000001       0.80053738006277808     
   2.9199999999999999       0.80054021329715397     
   2.9300000000000002       0.80053764344040867     
   2.9399999999999999       0.80052995904925572     
   2.9500000000000002       0.80051748445473603     
   2.9600000000000000       0.80050057485524562     
   2.9700000000000002       0.80047961134872803     
   2.9800000000000000       0.80045499595654468     
   2.9900000000000002       0.80042714668421211     
   3.0000000000000000       0.80039649266965707     
