 dd11   dd12   dd21   dd22   dd31   dd32   dd41   dd42   dd51   dd52  tme             sm               ec              oc              pareto
     1          1          5          1          2          5          1          3          2          1        209.98868218          6.76156788          0.54144666          0.37139503          0
     1          1          4          1          2          4          2          4          4          2        220.89802971         36.10989757          0.58609687          0.41007033          0
     1          1          4          5          2          2          4          0          3          3        198.73039017         21.74611620          0.80738699          0.61684355          0
     0          0          6          6          4          4          3          1          4          4        142.73731470         49.85948488          0.69142068          0.47424309          0
     0          0          1          5          5          5          1          4          3          4         95.24141540         26.97657291          0.55542340          0.20836472          0
     0          1          6          0          4          4          2          1          0          2        164.49756122         25.58084734          0.62578988          0.39540915          0
     0          0          3          0          0          4          4          2          0          2        181.80431432         37.10821152          0.83038735          0.57890742          0
     1          0          1          1          2          2          0          2          3          0        197.42384648         33.67814835          0.41077708          0.18058145          0
     0          1          2          5          1          1          2          3          5          0        177.46957072         49.12835960          0.67688168          0.59643388          0
     0          1          2          6          6          5          1          4          5          1        210.27925384         22.21176849          0.53948308          0.36364164          0
     0          1          5          3          6          3          1          3          0          2        207.48869084         28.33886213          0.54520221          0.28940876          0
     1          0          3          1          3          1          1          1          1          0        188.44057837          3.30281950          0.51903488          0.34898325          0
     0          0          3          3          1          0          3          1          4          2        214.58194332         36.12029725          0.73251502          0.59173811          0
     1          1          2          3          3          3          2          3          2          2        201.78304143         44.63754310          0.66842032          0.45703253          0
     0          0          2          5          1          2          3          2          3          1        178.75410944         27.85376827          0.69595605          0.36938918          0
     1          1          4          1          0          1          3          4          0          1        218.25210571          5.72939115          0.71268527          0.38014349          0
     1          0          6          2          6          1          1          2          5          3        155.19275263         38.79641584          0.54834549          0.34206372          0
     0          1          1          2          2          3          4          0          1          0        220.08468262         22.50249570          0.79559365          0.55985205          0
     0          1          1          6          3          6          0          3          1          3        121.77118692         42.49597023          0.45971179          0.31911999          0
     0          1          1          3          5          2          3          0          5          4        184.99774337         15.20205881          0.73881312          0.44179511          0
     0          0          6          3          2          2          1          0          3          4        220.04615693         28.56942724          0.58276490          0.34078197          0
     0          0          0          5          0          1          0          2          5          0        219.01913549         25.96815646          0.35337810          0.22852463          0
     1          0          1          5          3          2          1          2          0          2        200.61226102         39.63435170          0.51374049          0.31230123          0
     0          1          1          4          3          0          1          3          1          3        119.69211769         45.87245395          0.49506412          0.44986596          0
     1          1          4          6          2          2          4          3          5          4        217.38694925         33.13036759          0.82705538          0.65507594          0
     1          1          4          2          5          1          2          4          2          1        192.10593558         23.36559826          0.63503450          0.35945560          0
     1          1          3          4          3          1          3          1          5          2        187.47289840          8.72949174          0.77893088          0.47196435          0
     0          1          4          0          6          0          3          1          3          1        218.68687689         14.62428338          0.75551538          0.56375050          0
     0          1          3          5          4          3          1          1          3          0        119.28892148         20.06969208          0.55663705          0.29486868          0
     1          1          2          2          0          6          0          3          0          3        176.24679816         40.88945932          0.18766513          0.10721733          0
     1          1          3          5          1          4          4          1          3          0        199.71964333         36.52532017          0.79719212          0.48443578          0
     1          1          0          6          3          6          2          1          4          4        195.21457130         49.89643180          0.59884273          0.51260513          0
     1          1          6          0          4          4          0          0          3          3        158.57567753         43.65852290          0.32959792          0.15761849          0
     1          0          5          1          0          5          2          0          2          5        193.89973610         47.75688432          0.62830547          0.45825385          0
     1          0          5          2          2          6          1          1          4          1        189.69424486         15.80613686          0.54144666          0.37139503          0
     0          1          0          5          6          3          2          1          5          1        217.49735960          0.71689498          0.63682128          0.32001784          0
     1          0          2          6          0          6          0          4          0          2        132.81375177         27.65390924          0.45089193          0.25912705          0
     0          1          6          1          0          2          3          4          2          1        211.12922893         31.88091493          0.73627057          0.45998530          0
     0          1          6          4          6          6          2          3          1          1        193.02307119         35.69397920          0.68219394          0.33014086          0
     0          0          0          5          2          5          0          0          0          1        192.75367216         25.42252201          0.39879024          0.11742154          0
     0          1          1          5          5          0          0          2          1          5        134.47126485         26.40705931          0.38699691          0.24640511          0
     0          1          6          2          3          4          0          0          2          1        212.07078350          7.69600452          0.17865350          0.17865350          0
     0          1          4          4          2          1          2          2          1          1        200.74780531          1.67809563          0.67295568          0.36212715          0
     1          1          2          6          6          6          2          4          4          2        220.13370425         33.44974977          0.59825352          0.26711828          0
     0          1          0          3          5          2          1          2          2          3        215.36933481          9.77749403          0.55663705          0.41586014          0
     1          0          5          2          6          6          0          0          3          2        180.73812100         43.95999757          0.46186888          0.29567925          0
     1          0          6          5          3          1          1          2          4          5        211.32199684          3.66308992          0.53164323          0.32441416          0
     0          0          0          1          3          5          4          0          1          0        211.74355923         31.01395752          0.85178925          0.65129729          0
     0          1          1          6          2          5          3          3          5          5        125.35819244         20.32198480          0.72954154          0.58894974          0
     1          1          3          6          2          1          3          0          5          4        172.95299839         21.99949621          0.78458975          0.42880398          0
     0          0          2          5          3          1          3          3          4          4        196.75890363         49.56041871          0.76831243          0.45555609          0
     1          1          3          5          6          2          4          0          3          3        189.24709997         46.06246541          0.82273139          0.51119649          0
     0          0          0          2          6          5          1          0          4          5        116.78868760         33.73875806          0.54914609          0.25212808          0
     1          0          6          3          0          4          0          4          5          0        115.51334098         24.80253215          0.31545691          0.17486511          0
     0          1          4          5          3          1          1          0          1          2        160.29552191         34.68179384          0.55347007          0.36170520          0
     1          1          6          4          4          1          4          4          1          2        170.83765728         21.96347043          0.82176099          0.50027756          0
     1          0          3          6          5          4          3          3          2          5        217.37278854         27.69820338          0.73742394          0.42683634          0
     0          1          6          4          0          6          2          0          5          1        191.68586265          5.69529614          0.66175710          0.32940042          0
